<svg width="14" height="14" xmlns="http://www.w3.org/2000/svg">
 <!-- Created with Method Draw - http://github.com/duopixel/Method-Draw/ -->
 <g id="Layer_1">
  <title>Layer 1</title>
  <ellipse stroke="#000" stroke-width="0" ry="6.95831" rx="6.95831" id="svg_1" cy="6.96426" cx="6.98809" opacity="undefined" fill="#00ad7a"/>
 </g>
</svg>