<svg width="84" height="51" viewBox="0 0 84 51" fill="none" xmlns="http://www.w3.org/2000/svg">
<path d="M47.8378 34.7461H77.4098C80.0958 34.7461 82.2738 32.5681 82.2738 29.8821C82.2738 27.1951 80.0958 25.0171 77.4098 25.0171H47.8378" stroke="#576977" stroke-width="2" stroke-linecap="round" stroke-linejoin="round"/>
<path d="M72.9579 34.918V45.945" stroke="#576977" stroke-width="2" stroke-linecap="round" stroke-linejoin="round"/>
<path fill-rule="evenodd" clip-rule="evenodd" d="M78.8964 29.8819C78.8964 30.6419 78.2804 31.2569 77.5204 31.2569C76.7604 31.2569 76.1454 30.6419 76.1454 29.8819C76.1454 29.1219 76.7604 28.5059 77.5204 28.5059C78.2804 28.5059 78.8964 29.1219 78.8964 29.8819Z" fill="#576977"/>
<path fill-rule="evenodd" clip-rule="evenodd" d="M72.9697 29.8819C72.9697 30.6419 72.3548 31.2569 71.5948 31.2569C70.8348 31.2569 70.2188 30.6419 70.2188 29.8819C70.2188 29.1219 70.8348 28.5059 71.5948 28.5059C72.3548 28.5059 72.9697 29.1219 72.9697 29.8819Z" fill="#576977"/>
<path fill-rule="evenodd" clip-rule="evenodd" d="M67.0438 29.8819C67.0438 30.6419 66.4278 31.2569 65.6678 31.2569C64.9078 31.2569 64.2928 30.6419 64.2928 29.8819C64.2928 29.1219 64.9078 28.5059 65.6678 28.5059C66.4278 28.5059 67.0438 29.1219 67.0438 29.8819Z" fill="#576977"/>
<path fill-rule="evenodd" clip-rule="evenodd" d="M61.1171 29.8819C61.1171 30.6419 60.5021 31.2569 59.7421 31.2569C58.9821 31.2569 58.3661 30.6419 58.3661 29.8819C58.3661 29.1219 58.9821 28.5059 59.7421 28.5059C60.5021 28.5059 61.1171 29.1219 61.1171 29.8819Z" fill="#576977"/>
<path fill-rule="evenodd" clip-rule="evenodd" d="M55.1913 29.8819C55.1913 30.6419 54.5753 31.2569 53.8153 31.2569C53.0553 31.2569 52.4403 30.6419 52.4403 29.8819C52.4403 29.1219 53.0553 28.5059 53.8153 28.5059C54.5753 28.5059 55.1913 29.1219 55.1913 29.8819Z" fill="#576977"/>
<path fill-rule="evenodd" clip-rule="evenodd" d="M32.8046 31.2568C32.8046 32.0168 32.1886 32.6328 31.4286 32.6328C30.6686 32.6328 30.0536 32.0168 30.0536 31.2568C30.0536 30.4978 30.6686 29.8818 31.4286 29.8818C32.1886 29.8818 32.8046 30.4978 32.8046 31.2568Z" fill="#576977"/>
<path fill-rule="evenodd" clip-rule="evenodd" d="M26.878 31.2568C26.878 32.0168 26.263 32.6328 25.503 32.6328C24.743 32.6328 24.127 32.0168 24.127 31.2568C24.127 30.4978 24.743 29.8818 25.503 29.8818C26.263 29.8818 26.878 30.4978 26.878 31.2568Z" fill="#576977"/>
<path fill-rule="evenodd" clip-rule="evenodd" d="M20.952 31.2568C20.952 32.0168 20.336 32.6328 19.576 32.6328C18.816 32.6328 18.201 32.0168 18.201 31.2568C18.201 30.4978 18.816 29.8818 19.576 29.8818C20.336 29.8818 20.952 30.4978 20.952 31.2568Z" fill="#576977"/>
<path fill-rule="evenodd" clip-rule="evenodd" d="M32.8046 37.6182C32.8046 38.3782 32.1886 38.9932 31.4286 38.9932C30.6686 38.9932 30.0536 38.3782 30.0536 37.6182C30.0536 36.8582 30.6686 36.2422 31.4286 36.2422C32.1886 36.2422 32.8046 36.8582 32.8046 37.6182Z" fill="#576977"/>
<path fill-rule="evenodd" clip-rule="evenodd" d="M26.878 37.6182C26.878 38.3782 26.263 38.9932 25.503 38.9932C24.743 38.9932 24.127 38.3782 24.127 37.6182C24.127 36.8582 24.743 36.2422 25.503 36.2422C26.263 36.2422 26.878 36.8582 26.878 37.6182Z" fill="#576977"/>
<path fill-rule="evenodd" clip-rule="evenodd" d="M20.952 37.6182C20.952 38.3782 20.336 38.9932 19.576 38.9932C18.816 38.9932 18.201 38.3782 18.201 37.6182C18.201 36.8582 18.816 36.2422 19.576 36.2422C20.336 36.2422 20.952 36.8582 20.952 37.6182Z" fill="#576977"/>
<path d="M78.5722 45.9453H67.3442" stroke="#576977" stroke-width="2" stroke-linecap="round" stroke-linejoin="round"/>
<path d="M75.5839 49.0884H70.3549" stroke="#576977" stroke-width="2" stroke-linecap="round" stroke-linejoin="round"/>
<path fill-rule="evenodd" clip-rule="evenodd" d="M12.179 45.9456H47.838V10.2866H12.179V45.9456Z" stroke="#576977" stroke-width="2" stroke-linecap="round" stroke-linejoin="round"/>
<path fill-rule="evenodd" clip-rule="evenodd" d="M67.2939 23.634C67.3199 23.634 67.3449 23.642 67.3669 23.657C67.5539 23.79 67.8059 23.863 68.0759 23.863H68.2119C69.6279 23.863 70.7529 22.911 71.2199 21.315C71.8629 19.117 70.9239 17.327 69.7779 16.595C69.4399 16.377 69.0179 16.252 68.6209 16.252C68.2689 16.252 67.6409 16.356 67.4129 17.046C67.3969 17.098 67.3479 17.132 67.2939 17.132C67.2399 17.132 67.1919 17.098 67.1759 17.046C66.9469 16.356 66.3209 16.252 65.9669 16.252C65.5709 16.252 65.1489 16.377 64.8109 16.595C63.6649 17.327 62.7269 19.117 63.3689 21.315C63.8359 22.911 64.9599 23.863 66.3759 23.863H66.5129C66.7829 23.863 67.0349 23.79 67.2219 23.657C67.2429 23.642 67.2689 23.634 67.2939 23.634ZM68.2119 24.113H68.0759C67.7869 24.113 67.5129 24.041 67.2939 23.909C67.0759 24.041 66.8019 24.113 66.5129 24.113H66.3759C64.8659 24.113 63.6219 23.068 63.1289 21.386C62.8649 20.481 62.8519 19.498 63.0939 18.616C63.3599 17.648 63.9059 16.876 64.6749 16.384C65.0549 16.142 65.5239 16.002 65.9669 16.002C66.5699 16.002 67.0409 16.253 67.2939 16.698C67.5479 16.253 68.0169 16.002 68.6209 16.002C69.0639 16.002 69.5339 16.142 69.9139 16.384C70.6819 16.876 71.2289 17.648 71.4939 18.616C71.7369 19.498 71.7239 20.481 71.4599 21.386C70.9679 23.068 69.7229 24.113 68.2119 24.113Z" fill="#576977"/>
<path d="M67.3669 23.657L67.9465 22.842C67.9411 22.8382 67.9357 22.8344 67.9303 22.8307L67.3669 23.657ZM71.2199 21.315L72.1797 21.5958L72.1797 21.5957L71.2199 21.315ZM69.7779 16.595L69.2359 17.4353L69.2396 17.4377L69.7779 16.595ZM67.4129 17.046L66.4634 16.7322C66.4613 16.7387 66.4592 16.7453 66.4572 16.7519L67.4129 17.046ZM67.1759 17.046L68.1317 16.7519C68.1296 16.7449 68.1273 16.7379 68.125 16.731L67.1759 17.046ZM64.8109 16.595L65.3492 17.4377L65.353 17.4353L64.8109 16.595ZM63.3689 21.315L62.409 21.5953L62.4092 21.5958L63.3689 21.315ZM67.2219 23.657L67.8015 24.4719L67.8032 24.4707L67.2219 23.657ZM67.2939 23.909L67.8102 23.0525C67.492 22.8607 67.0938 22.8611 66.776 23.0535L67.2939 23.909ZM63.1289 21.386L62.169 21.666L62.1693 21.6672L63.1289 21.386ZM63.0939 18.616L62.1297 18.351L62.1296 18.3514L63.0939 18.616ZM64.6749 16.384L64.1378 15.5405L64.136 15.5416L64.6749 16.384ZM67.2939 16.698L66.4246 17.1922C66.6022 17.5046 66.9338 17.6976 67.2931 17.698C67.6524 17.6983 67.9843 17.5057 68.1624 17.1937L67.2939 16.698ZM69.9139 16.384L70.4534 15.5419L70.4511 15.5405L69.9139 16.384ZM71.4939 18.616L70.5294 18.88L70.5299 18.8816L71.4939 18.616ZM71.4599 21.386L72.4197 21.6667L72.4199 21.666L71.4599 21.386ZM67.2939 24.634C67.1091 24.634 66.9393 24.5757 66.8036 24.4832L67.9303 22.8307C67.7506 22.7082 67.5308 22.634 67.2939 22.634V24.634ZM66.7874 24.4719C67.1727 24.7459 67.6369 24.863 68.0759 24.863V22.863C68.03 22.863 67.9937 22.8566 67.9691 22.8495C67.944 22.8422 67.9385 22.8363 67.9465 22.842L66.7874 24.4719ZM68.0759 24.863H68.2119V22.863H68.0759V24.863ZM68.2119 24.863C70.1673 24.863 71.6169 23.519 72.1797 21.5958L70.2602 21.0341C69.8889 22.3029 69.0885 22.863 68.2119 22.863V24.863ZM72.1797 21.5957C72.9436 18.9844 71.8483 16.7308 70.3162 15.7522L69.2396 17.4377C69.9996 17.9231 70.7823 19.2495 70.2602 21.0342L72.1797 21.5957ZM70.32 15.7546C69.8224 15.4337 69.2126 15.252 68.6209 15.252V17.252C68.8233 17.252 69.0575 17.3202 69.2359 17.4353L70.32 15.7546ZM68.6209 15.252C68.1506 15.252 66.9042 15.3984 66.4634 16.7322L68.3624 17.3597C68.3705 17.3352 68.378 17.3205 68.3824 17.3129C68.3867 17.3054 68.3896 17.302 68.3905 17.301C68.3912 17.3003 68.395 17.2958 68.4098 17.2885C68.4268 17.2802 68.455 17.2701 68.4962 17.2626C68.5371 17.2551 68.5805 17.252 68.6209 17.252V15.252ZM66.4572 16.7519C66.5779 16.3594 66.9356 16.132 67.2939 16.132V18.132C67.7603 18.132 68.2159 17.8365 68.3687 17.34L66.4572 16.7519ZM67.2939 16.132C67.6619 16.132 68.0137 16.3682 68.1317 16.7519L66.2202 17.34C66.3702 17.8277 66.818 18.132 67.2939 18.132V16.132ZM68.125 16.731C67.683 15.399 66.4407 15.252 65.9669 15.252V17.252C66.0081 17.252 66.0518 17.2551 66.0928 17.2626C66.1339 17.2701 66.1619 17.2802 66.1788 17.2884C66.1934 17.2956 66.1972 17.3 66.198 17.301C66.199 17.3021 66.202 17.3056 66.2065 17.3133C66.211 17.3212 66.2186 17.3361 66.2268 17.3609L68.125 16.731ZM65.9669 15.252C65.3761 15.252 64.7663 15.4338 64.2689 15.7546L65.353 17.4353C65.5316 17.3201 65.7658 17.252 65.9669 17.252V15.252ZM64.2726 15.7522C62.7402 16.731 61.6465 18.9847 62.409 21.5953L64.3288 21.0346C63.8074 19.2492 64.5897 17.9229 65.3492 17.4377L64.2726 15.7522ZM62.4092 21.5958C62.9718 23.5186 64.4202 24.863 66.3759 24.863V22.863C65.4997 22.863 64.7001 22.3033 64.3287 21.0341L62.4092 21.5958ZM66.3759 24.863H66.5129V22.863H66.3759V24.863ZM66.5129 24.863C66.952 24.863 67.4162 24.7459 67.8015 24.4719L66.6424 22.842C66.6504 22.8363 66.6449 22.8422 66.6198 22.8495C66.5952 22.8566 66.5589 22.863 66.5129 22.863V24.863ZM67.8032 24.4707C67.6503 24.5799 67.4721 24.634 67.2939 24.634V22.634C67.0658 22.634 66.8356 22.704 66.6407 22.8432L67.8032 24.4707ZM68.2119 23.113H68.0759V25.113H68.2119V23.113ZM68.0759 23.113C67.9467 23.113 67.8554 23.0798 67.8102 23.0525L66.7777 24.7654C67.1705 25.0021 67.6272 25.113 68.0759 25.113V23.113ZM66.776 23.0535C66.733 23.0796 66.6426 23.113 66.5129 23.113V25.113C66.9613 25.113 67.4189 25.0023 67.8119 24.7644L66.776 23.0535ZM66.5129 23.113H66.3759V25.113H66.5129V23.113ZM66.3759 23.113C65.3993 23.113 64.4838 22.4531 64.0886 21.1047L62.1693 21.6672C62.7601 23.6828 64.3326 25.113 66.3759 25.113V23.113ZM64.0889 21.1059C63.8749 20.3722 63.867 19.5778 64.0583 18.8806L62.1296 18.3514C61.8369 19.4181 61.855 20.5897 62.169 21.666L64.0889 21.1059ZM64.0582 18.8809C64.266 18.1248 64.6752 17.5709 65.2139 17.2263L64.136 15.5416C63.1367 16.181 62.4539 17.1711 62.1297 18.351L64.0582 18.8809ZM65.2121 17.2274C65.4371 17.0842 65.7206 17.002 65.9669 17.002V15.002C65.3273 15.002 64.6728 15.1997 64.1378 15.5405L65.2121 17.2274ZM65.9669 17.002C66.2776 17.002 66.3803 17.1143 66.4246 17.1922L68.1633 16.2037C67.7016 15.3916 66.8622 15.002 65.9669 15.002V17.002ZM68.1624 17.1937C68.2083 17.1132 68.3108 17.002 68.6209 17.002V15.002C67.7231 15.002 66.8875 15.3927 66.4255 16.2022L68.1624 17.1937ZM68.6209 17.002C68.8677 17.002 69.1522 17.0844 69.3768 17.2274L70.4511 15.5405C69.9157 15.1995 69.2602 15.002 68.6209 15.002V17.002ZM69.3745 17.226C69.913 17.571 70.3228 18.1252 70.5294 18.88L72.4585 18.3519C72.1351 17.1707 71.4508 16.1809 70.4534 15.5419L69.3745 17.226ZM70.5299 18.8816C70.7218 19.5782 70.714 20.3722 70.5 21.1059L72.4199 21.666C72.7339 20.5897 72.7521 19.4177 72.458 18.3503L70.5299 18.8816ZM70.5002 21.1052C70.1061 22.4525 69.1901 23.113 68.2119 23.113V25.113C70.2557 25.113 71.8298 23.6834 72.4197 21.6667L70.5002 21.1052Z" fill="#576977"/>
<path fill-rule="evenodd" clip-rule="evenodd" d="M67.3017 17.1321C67.2967 17.1321 67.2907 17.1321 67.2827 17.1311C67.2157 17.1211 67.1687 17.0581 67.1787 16.9881C67.1907 16.9051 67.4837 14.9431 68.2407 13.8451C68.2807 13.7881 68.3587 13.7741 68.4157 13.8131C68.4727 13.8521 68.4867 13.9301 68.4477 13.9861C67.7217 15.0371 67.4287 17.0051 67.4257 17.0251C67.4157 17.0871 67.3637 17.1321 67.3017 17.1321Z" fill="#576977"/>
<path fill-rule="evenodd" clip-rule="evenodd" d="M67.3017 17.1321C67.2967 17.1321 67.2907 17.1321 67.2827 17.1311C67.2157 17.1211 67.1687 17.0581 67.1787 16.9881C67.1907 16.9051 67.4837 14.9431 68.2407 13.8451C68.2807 13.7881 68.3587 13.7741 68.4157 13.8131C68.4727 13.8521 68.4867 13.9301 68.4477 13.9861C67.7217 15.0371 67.4287 17.0051 67.4257 17.0251C67.4157 17.0871 67.3637 17.1321 67.3017 17.1321Z" stroke="#576977" stroke-width="2" stroke-linecap="round" stroke-linejoin="round"/>
<path fill-rule="evenodd" clip-rule="evenodd" d="M66.5878 16.3654C66.5588 16.3654 66.5288 16.3564 66.5058 16.3354C66.2718 16.1344 65.8478 15.7224 65.6378 15.2514C65.3118 14.5194 65.3638 13.7024 65.7708 13.1664C65.7808 13.1514 65.7958 13.1394 65.8118 13.1314L65.8188 13.1274C65.8398 13.1174 65.8628 13.1124 65.8878 13.1134C66.5588 13.1714 67.2008 13.6794 67.5248 14.4084C67.7218 14.8504 67.7858 15.3354 67.7018 15.7724C67.6898 15.8414 67.6248 15.8854 67.5558 15.8714C67.4888 15.8594 67.4438 15.7944 67.4558 15.7264C67.5298 15.3384 67.4738 14.9064 67.2978 14.5114C67.0198 13.8874 66.4888 13.4474 65.9318 13.3704C65.6148 13.8354 65.5878 14.5244 65.8648 15.1494C66.0048 15.4624 66.2978 15.8254 66.6698 16.1454C66.7218 16.1914 66.7278 16.2704 66.6818 16.3224C66.6568 16.3514 66.6228 16.3654 66.5878 16.3654Z" fill="#576977"/>
<path fill-rule="evenodd" clip-rule="evenodd" d="M66.5878 16.3654C66.5588 16.3654 66.5288 16.3564 66.5058 16.3354C66.2718 16.1344 65.8478 15.7224 65.6378 15.2514C65.3118 14.5194 65.3638 13.7024 65.7708 13.1664C65.7808 13.1514 65.7958 13.1394 65.8118 13.1314L65.8188 13.1274C65.8398 13.1174 65.8628 13.1124 65.8878 13.1134C66.5588 13.1714 67.2008 13.6794 67.5248 14.4084C67.7218 14.8504 67.7858 15.3354 67.7018 15.7724C67.6898 15.8414 67.6248 15.8854 67.5558 15.8714C67.4888 15.8594 67.4438 15.7944 67.4558 15.7264C67.5298 15.3384 67.4738 14.9064 67.2978 14.5114C67.0198 13.8874 66.4888 13.4474 65.9318 13.3704C65.6148 13.8354 65.5878 14.5244 65.8648 15.1494C66.0048 15.4624 66.2978 15.8254 66.6698 16.1454C66.7218 16.1914 66.7278 16.2704 66.6818 16.3224C66.6568 16.3514 66.6228 16.3654 66.5878 16.3654Z" stroke="#576977" stroke-width="2" stroke-linecap="round" stroke-linejoin="round"/>
<path fill-rule="evenodd" clip-rule="evenodd" d="M54.7988 18.6164C54.5328 17.6474 53.9868 16.8764 53.2178 16.3844C52.8388 16.1414 52.3678 16.0024 51.9258 16.0024C51.3208 16.0024 50.8528 16.2534 50.5988 16.6994C50.3448 16.2534 49.8748 16.0024 49.2718 16.0024C48.8318 16.0024 48.3648 16.1404 47.9868 16.3814C47.9828 16.4884 47.9788 16.5964 47.9728 16.7044C48.0208 16.6704 48.0668 16.6264 48.1138 16.5954C48.4538 16.3774 48.8758 16.2524 49.2718 16.2524C49.6248 16.2524 50.2518 16.3554 50.4808 17.0464C50.4968 17.0974 50.5448 17.1324 50.5988 17.1324C50.6528 17.1324 50.7008 17.0974 50.7178 17.0464C50.9448 16.3554 51.5718 16.2524 51.9258 16.2524C52.3208 16.2524 52.7428 16.3774 53.0828 16.5954C54.2278 17.3274 55.1668 19.1174 54.5238 21.3144C54.0578 22.9104 52.9328 23.8634 51.5168 23.8634H51.3808C51.1108 23.8634 50.8588 23.7904 50.6708 23.6574C50.6498 23.6414 50.6238 23.6344 50.5988 23.6344C50.5728 23.6344 50.5478 23.6414 50.5268 23.6574C50.3398 23.7904 50.0878 23.8634 49.8168 23.8634H49.6808C49.0628 23.8634 48.5048 23.6724 48.0278 23.3354C48.0438 23.4464 48.0688 23.5584 48.0858 23.6704C48.5608 23.9564 49.1008 24.1134 49.6808 24.1134H49.8168C50.1068 24.1134 50.3798 24.0414 50.5988 23.9084C50.8178 24.0414 51.0918 24.1134 51.3808 24.1134H51.5168C53.0278 24.1134 54.2728 23.0674 54.7648 21.3864C55.0278 20.4804 55.0408 19.4984 54.7988 18.6164Z" fill="#576977"/>
<path fill-rule="evenodd" clip-rule="evenodd" d="M54.7988 18.6164C54.5328 17.6474 53.9868 16.8764 53.2178 16.3844C52.8388 16.1414 52.3678 16.0024 51.9258 16.0024C51.3208 16.0024 50.8528 16.2534 50.5988 16.6994C50.3448 16.2534 49.8748 16.0024 49.2718 16.0024C48.8318 16.0024 48.3648 16.1404 47.9868 16.3814C47.9828 16.4884 47.9788 16.5964 47.9728 16.7044C48.0208 16.6704 48.0668 16.6264 48.1138 16.5954C48.4538 16.3774 48.8758 16.2524 49.2718 16.2524C49.6248 16.2524 50.2518 16.3554 50.4808 17.0464C50.4968 17.0974 50.5448 17.1324 50.5988 17.1324C50.6528 17.1324 50.7008 17.0974 50.7178 17.0464C50.9448 16.3554 51.5718 16.2524 51.9258 16.2524C52.3208 16.2524 52.7428 16.3774 53.0828 16.5954C54.2278 17.3274 55.1668 19.1174 54.5238 21.3144C54.0578 22.9104 52.9328 23.8634 51.5168 23.8634H51.3808C51.1108 23.8634 50.8588 23.7904 50.6708 23.6574C50.6498 23.6414 50.6238 23.6344 50.5988 23.6344C50.5728 23.6344 50.5478 23.6414 50.5268 23.6574C50.3398 23.7904 50.0878 23.8634 49.8168 23.8634H49.6808C49.0628 23.8634 48.5048 23.6724 48.0278 23.3354C48.0438 23.4464 48.0688 23.5584 48.0858 23.6704C48.5608 23.9564 49.1008 24.1134 49.6808 24.1134H49.8168C50.1068 24.1134 50.3798 24.0414 50.5988 23.9084C50.8178 24.0414 51.0918 24.1134 51.3808 24.1134H51.5168C53.0278 24.1134 54.2728 23.0674 54.7648 21.3864C55.0278 20.4804 55.0408 19.4984 54.7988 18.6164Z" stroke="#576977" stroke-width="2" stroke-linecap="round" stroke-linejoin="round"/>
<path fill-rule="evenodd" clip-rule="evenodd" d="M50.6064 17.1321C50.6004 17.1321 50.5954 17.1321 50.5874 17.1311C50.5194 17.1211 50.4734 17.0581 50.4824 16.9881C50.4954 16.9051 50.7884 14.9431 51.5454 13.8451C51.5854 13.7881 51.6634 13.7741 51.7194 13.8131C51.7774 13.8521 51.7914 13.9301 51.7524 13.9861C51.0264 15.0371 50.7334 17.0051 50.7304 17.0251C50.7204 17.0871 50.6684 17.1321 50.6064 17.1321Z" fill="#576977"/>
<path fill-rule="evenodd" clip-rule="evenodd" d="M50.6064 17.1321C50.6004 17.1321 50.5954 17.1321 50.5874 17.1311C50.5194 17.1211 50.4734 17.0581 50.4824 16.9881C50.4954 16.9051 50.7884 14.9431 51.5454 13.8451C51.5854 13.7881 51.6634 13.7741 51.7194 13.8131C51.7774 13.8521 51.7914 13.9301 51.7524 13.9861C51.0264 15.0371 50.7334 17.0051 50.7304 17.0251C50.7204 17.0871 50.6684 17.1321 50.6064 17.1321Z" stroke="#576977" stroke-width="2" stroke-linecap="round" stroke-linejoin="round"/>
<path fill-rule="evenodd" clip-rule="evenodd" d="M49.8916 16.3654C49.8636 16.3654 49.8336 16.3564 49.8096 16.3354C49.5766 16.1344 49.1526 15.7224 48.9426 15.2514C48.6166 14.5194 48.6676 13.7024 49.0756 13.1664C49.0856 13.1514 49.1006 13.1394 49.1166 13.1314L49.1226 13.1274C49.1436 13.1174 49.1676 13.1124 49.1926 13.1134C49.8636 13.1714 50.5056 13.6794 50.8296 14.4084C51.0266 14.8504 51.0896 15.3354 51.0066 15.7724C50.9946 15.8414 50.9296 15.8854 50.8606 15.8714C50.7926 15.8594 50.7486 15.7944 50.7606 15.7264C50.8346 15.3384 50.7786 14.9064 50.6026 14.5114C50.3246 13.8874 49.7936 13.4474 49.2366 13.3704C48.9186 13.8354 48.8926 14.5244 49.1696 15.1494C49.3096 15.4624 49.6016 15.8254 49.9746 16.1454C50.0266 16.1914 50.0326 16.2704 49.9866 16.3224C49.9616 16.3514 49.9266 16.3654 49.8916 16.3654Z" fill="#576977"/>
<path fill-rule="evenodd" clip-rule="evenodd" d="M49.8916 16.3654C49.8636 16.3654 49.8336 16.3564 49.8096 16.3354C49.5766 16.1344 49.1526 15.7224 48.9426 15.2514C48.6166 14.5194 48.6676 13.7024 49.0756 13.1664C49.0856 13.1514 49.1006 13.1394 49.1166 13.1314L49.1226 13.1274C49.1436 13.1174 49.1676 13.1124 49.1926 13.1134C49.8636 13.1714 50.5056 13.6794 50.8296 14.4084C51.0266 14.8504 51.0896 15.3354 51.0066 15.7724C50.9946 15.8414 50.9296 15.8854 50.8606 15.8714C50.7926 15.8594 50.7486 15.7944 50.7606 15.7264C50.8346 15.3384 50.7786 14.9064 50.6026 14.5114C50.3246 13.8874 49.7936 13.4474 49.2366 13.3704C48.9186 13.8354 48.8926 14.5244 49.1696 15.1494C49.3096 15.4624 49.6016 15.8254 49.9746 16.1454C50.0266 16.1914 50.0326 16.2704 49.9866 16.3224C49.9616 16.3514 49.9266 16.3654 49.8916 16.3654Z" stroke="#576977" stroke-width="2" stroke-linecap="round" stroke-linejoin="round"/>
<path fill-rule="evenodd" clip-rule="evenodd" d="M18.201 25.018H32.378V16.002H18.201V25.018Z" stroke="#576977" stroke-width="2" stroke-linecap="round" stroke-linejoin="round"/>
<path fill-rule="evenodd" clip-rule="evenodd" d="M42.1777 18.223C42.1777 19.45 41.1837 20.444 39.9577 20.444C38.7317 20.444 37.7377 19.45 37.7377 18.223C37.7377 16.996 38.7317 16.002 39.9577 16.002C41.1837 16.002 42.1777 16.996 42.1777 18.223Z" stroke="#576977" stroke-width="2" stroke-linecap="round" stroke-linejoin="round"/>
<path fill-rule="evenodd" clip-rule="evenodd" d="M42.1777 37.6185C42.1777 38.8445 41.1837 39.8385 39.9577 39.8385C38.7317 39.8385 37.7377 38.8445 37.7377 37.6185C37.7377 36.3915 38.7317 35.3975 39.9577 35.3975C41.1837 35.3975 42.1777 36.3915 42.1777 37.6185Z" stroke="#576977" stroke-width="2" stroke-linecap="round" stroke-linejoin="round"/>
<path fill-rule="evenodd" clip-rule="evenodd" d="M42.1777 27.9202C42.1777 29.1472 41.1837 30.1412 39.9577 30.1412C38.7317 30.1412 37.7377 29.1472 37.7377 27.9202C37.7377 26.6942 38.7317 25.7002 39.9577 25.7002C41.1837 25.7002 42.1777 26.6942 42.1777 27.9202Z" stroke="#576977" stroke-width="2" stroke-linecap="round" stroke-linejoin="round"/>
<path d="M43.8378 49.0879H16.1788" stroke="#576977" stroke-width="2" stroke-linecap="round" stroke-linejoin="round"/>
<path d="M30.0536 10.2865L24.7486 1.00049L0.999634 13.5375L7.54863 26.9945L12.1786 28.6995" stroke="#576977" stroke-width="2" stroke-linecap="round" stroke-linejoin="round"/>
<path fill-rule="evenodd" clip-rule="evenodd" d="M33.574 10.2867H43.838V7.07373H33.574V10.2867Z" stroke="#576977" stroke-width="2" stroke-linecap="round" stroke-linejoin="round"/>
</svg>