<svg width="96" height="60" viewBox="0 0 96 60" fill="none" xmlns="http://www.w3.org/2000/svg">
<path d="M17.2177 18.444C25.6867 9.97504 39.4167 9.97504 47.8857 18.444" stroke="#576977" stroke-width="2" stroke-linecap="round"/>
<path d="M2.85303 45.3862C7.08703 41.1522 12.637 39.0342 18.187 39.0342" stroke="#576977" stroke-width="2" stroke-linecap="round"/>
<path d="M12.269 45.3862C16.503 41.1522 22.053 39.0342 27.603 39.0342" stroke="#576977" stroke-width="2" stroke-linecap="round"/>
<path d="M21.6855 45.3862C25.9195 41.1522 31.4695 39.0342 37.0195 39.0342" stroke="#576977" stroke-width="2" stroke-linecap="round"/>
<path d="M31.102 45.3862C35.336 41.1522 40.886 39.0342 46.436 39.0342" stroke="#576977" stroke-width="2" stroke-linecap="round"/>
<path d="M40.518 45.3862C44.752 41.1522 50.303 39.0342 55.852 39.0342" stroke="#576977" stroke-width="2" stroke-linecap="round"/>
<path d="M49.9345 45.3862C54.1685 41.1522 59.7185 39.0342 65.2685 39.0342" stroke="#576977" stroke-width="2" stroke-linecap="round"/>
<path d="M59.3383 45.3862C63.5723 41.1522 69.1223 39.0342 74.6723 39.0342" stroke="#576977" stroke-width="2" stroke-linecap="round"/>
<path d="M4.38568 18.4442C10.2077 12.6222 18.5177 10.8022 25.8937 12.9852" stroke="#576977" stroke-width="2" stroke-linecap="round"/>
<path d="M35.8915 12.1459V4.73486" stroke="#576977" stroke-width="2" stroke-linecap="round"/>
<path d="M24.9575 13.2439V4.73486" stroke="#576977" stroke-width="2" stroke-linecap="round"/>
<path d="M21.6562 6.66251L30.6562 0.999512L39.1932 6.66251" stroke="#576977" stroke-width="2" stroke-linecap="round" stroke-linejoin="round"/>
<path d="M30.6367 6.17822V8.76922" stroke="#576977" stroke-width="2" stroke-linecap="round"/>
<path d="M1.77338 39.0347H65.2684" stroke="#576977" stroke-width="2" stroke-linecap="round"/>
<path fill-rule="evenodd" clip-rule="evenodd" d="M38.8627 30.9705C38.8627 32.2405 37.8337 33.2685 36.5647 33.2685C35.2957 33.2685 34.2667 32.2405 34.2667 30.9705C34.2667 29.7015 36.5647 27.8955 36.5647 27.8955C36.5647 27.8955 38.8627 29.7015 38.8627 30.9705Z" stroke="#576977" stroke-width="2" stroke-linecap="round"/>
<path d="M36.5649 35.8846V33.2686" stroke="#576977" stroke-width="2" stroke-linecap="round"/>
<path fill-rule="evenodd" clip-rule="evenodd" d="M31.3115 30.9705C31.3115 32.2405 30.2825 33.2685 29.0145 33.2685C27.7455 33.2685 26.7165 32.2405 26.7165 30.9705C26.7165 29.7015 29.0145 27.8955 29.0145 27.8955C29.0145 27.8955 31.3115 29.7015 31.3115 30.9705Z" stroke="#576977" stroke-width="2" stroke-linecap="round"/>
<path d="M29.0141 35.8846V33.2686" stroke="#576977" stroke-width="2" stroke-linecap="round"/>
<path fill-rule="evenodd" clip-rule="evenodd" d="M16.2094 30.9705C16.2094 32.2405 15.1804 33.2685 13.9114 33.2685C12.6424 33.2685 11.6144 32.2405 11.6144 30.9705C11.6144 29.7015 13.9114 27.8955 13.9114 27.8955C13.9114 27.8955 16.2094 29.7015 16.2094 30.9705Z" stroke="#576977" stroke-width="2" stroke-linecap="round"/>
<path d="M13.9116 35.8846V33.2686" stroke="#576977" stroke-width="2" stroke-linecap="round"/>
<path fill-rule="evenodd" clip-rule="evenodd" d="M8.65811 30.9705C8.65811 32.2405 7.63011 33.2685 6.36111 33.2685C5.09211 33.2685 4.06311 32.2405 4.06311 30.9705C4.06311 29.7015 6.36111 27.8955 6.36111 27.8955C6.36111 27.8955 8.65811 29.7015 8.65811 30.9705Z" stroke="#576977" stroke-width="2" stroke-linecap="round"/>
<path d="M6.36078 35.8846V33.2686" stroke="#576977" stroke-width="2" stroke-linecap="round"/>
<path fill-rule="evenodd" clip-rule="evenodd" d="M23.7607 30.9705C23.7607 32.2405 22.7317 33.2685 21.4627 33.2685C20.1937 33.2685 19.1647 32.2405 19.1647 30.9705C19.1647 29.7015 21.4627 27.8955 21.4627 27.8955C21.4627 27.8955 23.7607 29.7015 23.7607 30.9705Z" stroke="#576977" stroke-width="2" stroke-linecap="round"/>
<path d="M21.4628 35.8846V33.2686" stroke="#576977" stroke-width="2" stroke-linecap="round"/>
<path fill-rule="evenodd" clip-rule="evenodd" d="M56.1689 53.7791C56.1689 55.0481 55.1399 56.0761 53.8709 56.0761C52.6019 56.0761 51.5729 55.0481 51.5729 53.7791C51.5729 52.5091 53.8709 50.7031 53.8709 50.7031C53.8709 50.7031 56.1689 52.5091 56.1689 53.7791Z" stroke="#576977" stroke-width="2" stroke-linecap="round"/>
<path d="M53.871 58.6922V56.0762" stroke="#576977" stroke-width="2" stroke-linecap="round"/>
<path fill-rule="evenodd" clip-rule="evenodd" d="M48.6176 53.7791C48.6176 55.0481 47.5886 56.0761 46.3196 56.0761C45.0516 56.0761 44.0226 55.0481 44.0226 53.7791C44.0226 52.5091 46.3196 50.7031 46.3196 50.7031C46.3196 50.7031 48.6176 52.5091 48.6176 53.7791Z" stroke="#576977" stroke-width="2" stroke-linecap="round"/>
<path d="M46.3198 58.6922V56.0762" stroke="#576977" stroke-width="2" stroke-linecap="round"/>
<path fill-rule="evenodd" clip-rule="evenodd" d="M33.5156 53.7791C33.5156 55.0481 32.4866 56.0761 31.2176 56.0761C29.9486 56.0761 28.9196 55.0481 28.9196 53.7791C28.9196 52.5091 31.2176 50.7031 31.2176 50.7031C31.2176 50.7031 33.5156 52.5091 33.5156 53.7791Z" stroke="#576977" stroke-width="2" stroke-linecap="round"/>
<path d="M31.2177 58.6922V56.0762" stroke="#576977" stroke-width="2" stroke-linecap="round"/>
<path fill-rule="evenodd" clip-rule="evenodd" d="M25.9643 53.7791C25.9643 55.0481 24.9363 56.0761 23.6673 56.0761C22.3983 56.0761 21.3693 55.0481 21.3693 53.7791C21.3693 52.5091 23.6673 50.7031 23.6673 50.7031C23.6673 50.7031 25.9643 52.5091 25.9643 53.7791Z" stroke="#576977" stroke-width="2" stroke-linecap="round"/>
<path d="M23.6669 58.6922V56.0762" stroke="#576977" stroke-width="2" stroke-linecap="round"/>
<path fill-rule="evenodd" clip-rule="evenodd" d="M41.0668 53.7791C41.0668 55.0481 40.0378 56.0761 38.7688 56.0761C37.4998 56.0761 36.4708 55.0481 36.4708 53.7791C36.4708 52.5091 38.7688 50.7031 38.7688 50.7031C38.7688 50.7031 41.0668 52.5091 41.0668 53.7791Z" stroke="#576977" stroke-width="2" stroke-linecap="round"/>
<path d="M38.769 58.6922V56.0762" stroke="#576977" stroke-width="2" stroke-linecap="round"/>
<path fill-rule="evenodd" clip-rule="evenodd" d="M70.4169 30.1587C70.4169 35.0597 66.4429 39.0347 61.5409 39.0347C56.6389 39.0347 52.6649 35.0597 52.6649 30.1587C52.6649 25.2567 56.6389 21.2817 61.5409 21.2817C66.4429 21.2817 70.4169 25.2567 70.4169 30.1587Z" stroke="#576977" stroke-width="2" stroke-linecap="round"/>
<path d="M52.2875 22.0825C54.5385 19.5055 57.8495 17.8765 61.5405 17.8765C68.3235 17.8765 73.8225 23.3755 73.8225 30.1585H78.0195" stroke="#576977" stroke-width="2" stroke-linecap="round"/>
<path fill-rule="evenodd" clip-rule="evenodd" d="M94.8539 32.7303C94.8539 36.2123 92.0319 39.0353 88.5499 39.0353C85.0679 39.0353 82.2459 36.2123 82.2459 32.7303C82.2459 29.2493 85.0679 26.4263 88.5499 26.4263C92.0319 26.4263 94.8539 29.2493 94.8539 32.7303Z" stroke="#576977" stroke-width="2" stroke-linecap="round"/>
<path d="M85.7851 32.7303C85.7851 31.2043 87.0231 29.9653 88.5501 29.9653C90.0771 29.9653 91.3151 31.2043 91.3151 32.7303C91.3151 34.2573 90.0771 35.4963 88.5501 35.4963" stroke="#576977" stroke-width="2" stroke-linecap="round"/>
<path d="M57.329 30.1588C57.329 27.8328 59.215 25.9468 61.541 25.9468C63.867 25.9468 65.752 27.8328 65.752 30.1588C65.752 32.4838 63.867 34.3698 61.541 34.3698" stroke="#576977" stroke-width="2" stroke-linecap="round"/>
<path d="M88.5497 26.4263V20.3563C88.5497 18.2383 87.0427 16.4213 84.9627 16.0303L70.6837 13.3413" stroke="#576977" stroke-width="2" stroke-linecap="round"/>
<path d="M71.9335 23.0767L69.4335 5.65674" stroke="#576977" stroke-width="2" stroke-linecap="round"/>
<path d="M72.2836 5.56201H62.8286C61.1696 5.56201 59.7056 6.65001 59.2276 8.23801L57.1576 15.11" stroke="#576977" stroke-width="2" stroke-linecap="round"/>
<path d="M83.3583 24.313V20.146" stroke="#576977" stroke-width="2" stroke-linecap="round"/>
<path d="M76.7558 24.313V20.146" stroke="#576977" stroke-width="2" stroke-linecap="round"/>
<path d="M80.0571 24.313V20.146" stroke="#576977" stroke-width="2" stroke-linecap="round"/>
<path d="M53.3412 24.313H48.1852V27.895H41.6292" stroke="#576977" stroke-width="2" stroke-linecap="round"/>
<path d="M0.999878 23.0767H42.3709" stroke="#576977" stroke-width="2" stroke-linecap="round" stroke-linejoin="round" stroke-dasharray="1 3"/>
</svg>