<?xml version="1.0" encoding="UTF-8"?>
<svg width="1440px" height="90px" viewBox="0 0 1440 90" version="1.1" xmlns="http://www.w3.org/2000/svg" xmlns:xlink="http://www.w3.org/1999/xlink">
    <!-- Generator: Sketch 52 (66869) - http://www.bohemiancoding.com/sketch -->
    <title>footer-pattern</title>
    <desc>Created with Sketch.</desc>
    <g id="footer-pattern" stroke="none" stroke-width="1" fill="none" fill-rule="evenodd">
        <g id="Group" transform="translate(-1.000000, 0.000000)">
            <path d="M39.3656198,57.4363011 C39.0742561,56.5806261 38.9195,55.6713556 38.9195,54.74 L38.9195,47.2649394 L55.6964804,56.9514696 C56.7789139,57.5763039 57.6875034,58.4229243 58.3783,59.4151552 L58.3783,54.8151 C58.3783,51.8277256 59.9726213,49.0663174 62.5603491,47.5725526 L78.2837633,38.4933156 C77.992243,37.6376794 77.8374,36.7284866 77.8374,35.7972 L77.8374,28.3221809 L94.6153714,38.0086644 C95.6978096,38.6335015 96.6064019,39.4801239 97.2972,40.4723567 L97.2972,35.8728 C97.2972,32.8845771 98.89139,30.1230932 101.479249,28.6292526 L117.202919,19.5508726 C116.911298,18.6951031 116.7564,17.7857524 116.7564,16.8543 L116.7564,9.37928085 L133.534392,19.0657762 C134.616679,19.6907914 135.525266,20.5375908 136.2161,21.5299336 L136.2161,16.9299 C136.2161,13.9416771 137.81029,11.1801932 140.398149,9.68635263 L157.1751,-0.000160645065 L157.1751,7.4749 C157.1751,10.4626405 155.581337,13.2233033 152.994123,14.7174058 L137.320722,23.7671855 C137.579458,24.5776842 137.7164,25.433794 137.7164,26.3093 L137.7164,33.784391 L136.591377,33.1348058 L120.938449,24.0968474 C119.855758,23.4718642 118.947031,22.6252017 118.2562,21.6329459 L118.2562,26.4178 C118.2562,29.4065554 116.662533,32.1678803 114.075223,33.6603058 L98.4018984,42.7100412 C98.6605303,43.5205035 98.7974,44.3766184 98.7974,45.2522 L98.7974,52.727291 L97.6723771,52.0777058 L82.0194491,43.0397474 C80.9368099,42.4147944 80.0281189,41.5681834 79.3373,40.5759896 L79.3373,45.3601 C79.3373,48.348664 77.743815,51.1099771 75.1563229,52.6036058 L59.4831332,61.6532633 C59.7416778,62.4636006 59.8785,63.3195703 59.8785,64.195 L59.8785,71.670091 L58.7534771,71.0205058 L43.1007559,61.9826667 C42.0184086,61.3583416 41.1099594,60.5120359 40.4193,59.5199565 L40.4193,64.303 C40.4193,67.2912229 38.82511,70.0527068 36.2373229,71.5465058 L20.5640963,80.5961846 C20.8226614,81.4063993 20.9595,82.2622024 20.9595,83.1374 L20.9595,90.613491 L19.8344771,89.9639058 L4.18142965,80.9258784 C1.5944333,79.4319018 0.0005,76.6703373 0.0005,73.6824 L0.0005,66.2072675 L16.7775409,75.8949046 C17.8599171,76.5197058 18.7684984,77.3663085 19.4593,78.3584734 L19.4593,73.759 C19.4593,70.7714035 21.0539381,68.0096687 23.6412297,66.5155216 L39.3656198,57.4363011 Z M39.3658235,19.5509881 C39.0743213,18.6952166 38.9195,17.7858334 38.9195,16.8543 L38.9195,9.37923935 L55.6964804,19.0657696 C56.7789139,19.6906039 57.6875034,20.5372243 58.3783,21.5294552 L58.3783,16.9299 C58.3783,13.9416771 59.97249,11.1801932 62.5603491,9.68635263 L79.3373,-0.000160645065 L79.3373,7.4749 C79.3373,10.4632671 77.7439852,13.2236789 75.1563229,14.7174058 L59.4829985,23.7671411 C59.7416302,24.5776033 59.8785,25.4337183 59.8785,26.3093 L59.8785,33.784391 L58.7534771,33.1348058 L43.1005491,24.0968474 C42.0182404,23.4720851 41.1098849,22.6257497 40.4193,21.633835 L40.4193,26.4178 C40.4193,29.4062143 38.824928,32.1677103 36.2373229,33.6603058 L20.5639985,42.7100411 C20.8226302,43.5205033 20.9595,44.3766183 20.9595,45.2522 L20.9595,52.727291 L19.8344771,52.0777058 L4.18142965,43.0396784 C1.59426287,41.5456033 0.0005,38.7849405 0.0005,35.7972 L0.0005,28.3221394 L16.7774804,38.0086696 C17.8599139,38.6335039 18.7685034,39.4801243 19.4593,40.4723552 L19.4593,35.8728 C19.4593,32.8852035 21.0539381,30.1234687 23.6412297,28.6293216 L39.3658235,19.5509881 Z M117.202715,57.4361856 C116.911233,56.5805126 116.7564,55.6712746 116.7564,54.74 L116.7564,47.2649809 L133.534392,56.9514762 C134.616679,57.5764914 135.525266,58.4232908 136.2161,59.4156336 L136.2161,54.8151 C136.2161,51.8277256 137.810421,49.0663174 140.398149,47.5725526 L156.121647,38.4932674 C155.830137,37.6376452 155.6753,36.7284691 155.6753,35.7972 L155.6753,28.3221809 L172.453292,38.0086762 C173.535631,38.6337216 174.444254,39.4805725 175.1351,40.4729773 L175.1351,35.8728 C175.1351,32.8845771 176.72929,30.1230932 179.317149,28.6292526 L195.040819,19.5508726 C194.749198,18.6951031 194.5943,17.7857524 194.5943,16.8543 L194.5943,9.37928085 L211.372292,19.0657762 C212.454579,19.6907914 213.363166,20.5375908 214.054,21.5299336 L214.054,16.9299 C214.054,13.9416771 215.64819,11.1801932 218.236049,9.68635263 L235.013,-0.000160645065 L235.013,7.4749 C235.013,10.4626405 233.419237,13.2233033 230.832023,14.7174058 L215.158622,23.7671855 C215.417358,24.5776842 215.5543,25.433794 215.5543,26.3093 L215.5543,33.784391 L214.429277,33.1348058 L198.776349,24.0968474 C197.693658,23.4718642 196.784931,22.6252017 196.0941,21.6329459 L196.0941,26.4178 C196.0941,29.4059287 194.499985,32.1675054 191.913123,33.6603058 L176.239637,42.7101342 C176.498364,43.5206186 176.6353,44.3767116 176.6353,45.2522 L176.6353,52.727291 L175.510277,52.0777058 L159.857349,43.0397474 C158.774658,42.4147642 157.865931,41.5681017 157.1751,40.5758459 L157.1751,45.3601 C157.1751,48.3480373 155.581167,51.1096018 152.994123,52.6036058 L137.320856,61.6533076 C137.579506,62.4636815 137.7164,63.319646 137.7164,64.195 L137.7164,71.670091 L136.591377,71.0205058 L120.938656,61.9826667 C119.855926,61.3581209 118.947106,60.5114881 118.2562,59.5190674 L118.2562,64.303 C118.2562,67.291564 116.662715,70.0528771 114.075223,71.5465058 L98.4019953,80.5961852 C98.6605615,81.4064002 98.7974,82.2622029 98.7974,83.1374 L98.7974,90.613491 L97.6723771,89.9639058 L82.0194491,80.9259474 C79.43159,79.4321068 77.8374,76.6706229 77.8374,73.6824 L77.8374,66.207309 L94.6153869,75.8948734 C95.6977913,76.5196909 96.6063895,77.3663066 97.2972,78.3584825 L97.2972,73.759 C97.2972,70.7707771 98.89139,68.0092932 101.479249,66.5154526 L117.202715,57.4361856 Z M195.040615,57.4361856 C194.749133,56.5805126 194.5943,55.6712746 194.5943,54.74 L194.5943,47.2649809 L211.372292,56.9514762 C212.454579,57.5764914 213.363166,58.4232908 214.054,59.4156336 L214.054,54.8151 C214.054,51.8277256 215.648321,49.0663174 218.236049,47.5725526 L233.959547,38.4932674 C233.668037,37.6376452 233.5132,36.7284691 233.5132,35.7972 L233.5132,28.3221809 L250.291192,38.0086762 C251.373531,38.6337216 252.282154,39.4805725 252.973,40.4729773 L252.973,35.8728 C252.973,32.8845771 254.56719,30.1230932 257.155049,28.6292526 L272.878635,19.5509208 C272.587004,18.6951373 272.4321,17.7857699 272.4321,16.8543 L272.4321,9.37928085 L289.210092,19.0657762 C290.29217,19.6906708 291.200616,20.5372639 291.8914,21.5293591 L291.8914,16.9299 C291.8914,13.9423035 293.486038,11.1805687 296.07333,9.68642157 L312.8514,-0.000119148736 L312.8514,7.4749 C312.8514,10.462926 311.25738,13.2235085 308.669423,14.7174058 L292.996359,23.7669904 C293.255136,24.5775469 293.3921,25.4337238 293.3921,26.3093 L293.3921,33.784391 L292.267077,33.1348058 L276.614149,24.0968474 C275.53151,23.4718944 274.622819,22.6252834 273.932,21.6330896 L273.932,26.4178 C273.932,29.4059287 272.337885,32.1675054 269.751023,33.6603058 L254.077537,42.7101342 C254.336264,43.5206186 254.4732,44.3767116 254.4732,45.2522 L254.4732,52.727291 L253.348177,52.0777058 L237.695249,43.0397474 C236.612558,42.4147642 235.703831,41.5681017 235.013,40.5758459 L235.013,45.3601 C235.013,48.3480373 233.419067,51.1096018 230.832023,52.6036058 L215.158756,61.6533076 C215.417406,62.4636815 215.5543,63.319646 215.5543,64.195 L215.5543,71.670091 L214.429277,71.0205058 L198.776556,61.9826667 C197.693826,61.3581209 196.785006,60.5114881 196.0941,59.5190674 L196.0941,64.303 C196.0941,67.2909373 194.500167,70.0525018 191.913123,71.5465058 L176.239734,80.596278 C176.498395,81.406515 176.6353,82.262296 176.6353,83.1374 L176.6353,90.613491 L175.511429,89.9645709 L175.509125,89.9632407 L159.857349,80.9259474 C157.26949,79.4321068 155.6753,76.6706229 155.6753,73.6824 L155.6753,66.207309 L172.453323,75.8948942 C173.53562,76.5199153 174.444244,77.3667557 175.1351,78.3591004 L175.1351,73.759 C175.1351,70.7707771 176.72929,68.0092932 179.317149,66.5154526 L195.040615,57.4361856 Z M272.878432,57.4362338 C272.586939,56.5805468 272.4321,55.6712921 272.4321,54.74 L272.4321,47.2649809 L289.210092,56.9514762 C290.29217,57.5763708 291.200616,58.4229639 291.8914,59.4150591 L291.8914,54.8151 C291.8914,51.8283519 293.486169,49.0666929 296.07333,47.5726216 L311.79753,38.4935108 C311.505967,37.6378177 311.3511,36.7285575 311.3511,35.7972 L311.3511,28.3221809 L328.129092,38.0086762 C329.21117,38.6335708 330.119616,39.4801639 330.8104,40.4722591 L330.8104,35.8728 C330.8104,32.8852035 332.405038,30.1234687 334.99233,28.6293216 L350.716618,19.5511642 C350.424933,18.6953097 350.27,17.7858582 350.27,16.8543 L350.27,9.37928085 L367.047992,19.0657762 C368.13007,19.6906708 369.038516,20.5372639 369.7293,21.5293591 L369.7293,16.9299 C369.7293,13.9423035 371.323938,11.1805687 373.91123,9.68642157 L390.6893,-0.000119148736 L390.6893,7.4749 C390.6893,10.462926 389.09528,13.2235085 386.507323,14.7174058 L370.834259,23.7669904 C371.093036,24.5775469 371.23,25.4337238 371.23,26.3093 L371.23,33.784391 L370.104977,33.1348058 L354.452049,24.0968474 C353.369671,23.4720452 352.461157,22.6256919 351.7704,21.6338076 L351.7704,26.4178 C351.7704,29.4062143 350.176028,32.1677103 347.588423,33.6603058 L331.915359,42.7098904 C332.174136,43.5204469 332.3111,44.3766238 332.3111,45.2522 L332.3111,52.727291 L331.186077,52.0777058 L315.533149,43.0397474 C314.450719,42.414915 313.54217,41.5685102 312.8514,40.576564 L312.8514,45.3601 C312.8514,48.3483229 311.25721,51.1098068 308.669423,52.6036058 L292.996494,61.6531126 C293.255184,62.4635442 293.3921,63.3195758 293.3921,64.195 L293.3921,71.670091 L292.267077,71.0205058 L276.614356,61.9826667 C275.531678,61.3581511 274.622894,60.5115698 273.932,59.519211 L273.932,64.303 C273.932,67.2909373 272.338067,70.0525018 269.751023,71.5465058 L254.077634,80.596278 C254.336295,81.406515 254.4732,82.262296 254.4732,83.1374 L254.4732,90.613491 L253.348177,89.9639058 L237.695249,80.9259474 C235.10739,79.4321068 233.5132,76.6706229 233.5132,73.6824 L233.5132,66.207309 L250.291223,75.8948942 C251.37352,76.5199153 252.282144,77.3667557 252.973,78.3591004 L252.973,73.759 C252.973,70.7707771 254.56719,68.0092932 257.155049,66.5154526 L272.878432,57.4362338 Z M350.716415,57.4364773 C350.424868,56.5807193 350.27,55.6713804 350.27,54.74 L350.27,47.2649809 L367.047992,56.9514762 C368.13007,57.5763708 369.038516,58.4229639 369.7293,59.4150591 L369.7293,54.8151 C369.7293,51.8283519 371.324069,49.0666929 373.91123,47.5726216 L389.636069,38.4931416 C389.344731,37.6375878 389.19,36.7284626 389.19,35.7972 L389.19,28.3221394 L405.96701,38.0086866 C407.049079,38.6335758 407.957519,39.4801645 408.6483,40.472256 L408.6483,35.8728 C408.6483,32.8852035 410.242938,30.1234687 412.83023,28.6293216 L428.555158,19.5507951 C428.263698,18.6950799 428.1089,17.7857634 428.1089,16.8543 L428.1089,9.37923935 L444.88591,19.0657866 C445.967979,19.6906758 446.876419,20.5372645 447.5672,21.529356 L447.5672,16.9299 C447.5672,13.9423035 449.161838,11.1805687 451.74913,9.68642157 L468.5262,-0.000160645065 L468.5262,7.4749 C468.5262,10.4632671 466.932885,13.2236789 464.345223,14.7174058 L448.67216,23.7669903 C448.930936,24.5775466 449.0679,25.4337236 449.0679,26.3093 L449.0679,33.784391 L447.942877,33.1348058 L432.289949,24.0968474 C431.207431,23.4719645 430.298934,22.6254228 429.6083,21.6332605 L429.6083,26.4178 C429.6083,29.4062143 428.013928,32.1677103 425.426323,33.6603058 L409.75326,42.7098903 C410.012036,43.5204466 410.149,44.3766236 410.149,45.2522 L410.149,52.727291 L409.023977,52.0777058 L393.371049,43.0397474 C392.288479,42.4148343 391.379946,41.5682411 390.6893,40.5760168 L390.6893,45.3601 C390.6893,48.3483229 389.09511,51.1098068 386.507323,52.6036058 L370.834394,61.6531126 C371.093084,62.4635442 371.23,63.3195758 371.23,64.195 L371.23,71.670091 L370.104977,71.0205058 L354.452256,61.9826667 C353.369839,61.3583017 352.461232,60.5119782 351.7704,59.5199291 L351.7704,64.303 C351.7704,67.2912229 350.17621,70.0527068 347.588423,71.5465058 L331.915457,80.5960343 C332.174167,81.4063434 332.3111,82.2622082 332.3111,83.1374 L332.3111,90.613491 L331.186077,89.9639058 L315.533149,80.9259474 C312.94529,79.4321068 311.3511,76.6706229 311.3511,73.6824 L311.3511,66.207309 L328.129123,75.8948942 C329.211159,76.5197645 330.119606,77.3663471 330.8104,78.3583823 L330.8104,73.759 C330.8104,70.7714035 332.405038,68.0096687 334.99233,66.5155216 L350.716415,57.4364773 Z M428.554954,57.4361081 C428.263633,56.5804894 428.1089,55.6712856 428.1089,54.74 L428.1089,47.2649394 L444.88591,56.9514866 C445.967979,57.5763758 446.876419,58.4229645 447.5672,59.415056 L447.5672,54.8151 C447.5672,51.8283519 449.161969,49.0666929 451.74913,47.5726216 L467.473165,38.4930261 C467.181708,37.6374743 467.0269,36.7283816 467.0269,35.7972 L467.0269,28.3221809 L483.804892,38.0086762 C484.88697,38.6335708 485.795416,39.4801639 486.4862,40.4722591 L486.4862,35.8728 C486.4862,32.8852035 488.080838,30.1234687 490.66813,28.6293216 L506.392253,19.5506796 C506.100675,18.6949664 505.9458,17.7856824 505.9458,16.8543 L505.9458,9.37928085 L522.723792,19.0657762 C523.80587,19.6906708 524.714316,20.5372639 525.4051,21.5293591 L525.4051,16.9299 C525.4051,13.9423035 526.999738,11.1805687 529.58703,9.68642157 L546.3641,-0.000160645065 L546.3641,7.4749 C546.3641,10.4626405 544.770337,13.2233033 542.183123,14.7174058 L526.510059,23.7669904 C526.768836,24.5775469 526.9058,25.4337238 526.9058,26.3093 L526.9058,33.784391 L525.780777,33.1348058 L510.127849,24.0968474 C509.044949,23.4717436 508.13608,22.6248749 507.4452,21.6323714 L507.4452,26.4178 C507.4452,29.4059287 505.851085,32.1675054 503.264223,33.6603058 L487.591159,42.7098904 C487.849936,43.5204469 487.9869,44.3766238 487.9869,45.2522 L487.9869,52.727291 L486.861877,52.0777058 L471.208949,43.0397474 C470.125996,42.4146135 469.217093,41.5676932 468.5262,40.5751277 L468.5262,45.3601 C468.5262,48.348664 466.932715,51.1099771 464.345223,52.6036058 L448.672294,61.6531125 C448.930984,62.4635439 449.0679,63.3195757 449.0679,64.195 L449.0679,71.670091 L447.942877,71.0205058 L432.290156,61.9826667 C431.2076,61.3582211 430.299009,60.5117092 429.6083,59.5193819 L429.6083,64.303 C429.6083,67.2912229 428.01411,70.0527068 425.426323,71.5465058 L409.753357,80.5960341 C410.012067,81.4063431 410.149,82.262208 410.149,83.1374 L410.149,90.613491 L409.023977,89.9639058 L393.371049,80.9259474 C390.783485,79.4322771 389.19,76.670964 389.19,73.6824 L389.19,66.2072675 L405.967041,75.8949046 C407.049068,76.5197695 407.957509,77.3663478 408.6483,78.3583792 L408.6483,73.759 C408.6483,70.7714035 410.242938,68.0096687 412.83023,66.5155216 L428.554954,57.4361081 Z M506.39205,57.4359926 C506.10061,56.5803759 505.9458,55.6712046 505.9458,54.74 L505.9458,47.2649809 L522.723792,56.9514762 C523.80587,57.5763708 524.714316,58.4229639 525.4051,59.4150591 L525.4051,54.8151 C525.4051,51.8283519 526.999869,49.0666929 529.58703,47.5726216 L545.311065,38.4930261 C545.019608,37.6374743 544.8648,36.7283816 544.8648,35.7972 L544.8648,28.3221809 L561.642792,38.0086762 C562.724818,38.6335406 563.633228,39.4800822 564.324,40.4721155 L564.324,35.8728 C564.324,32.8852035 565.918638,30.1234687 568.50593,28.6293216 L584.230137,19.5506313 C583.938569,18.6949322 583.7837,17.7856649 583.7837,16.8543 L583.7837,9.37928085 L600.561692,19.0657762 C601.64377,19.6906708 602.552216,20.5372639 603.243,21.5293591 L603.243,16.9299 C603.243,13.9423035 604.837638,11.1805687 607.42493,9.68642157 L624.202,-0.000160645065 L624.202,7.4749 C624.202,10.4626405 622.608237,13.2233033 620.021023,14.7174058 L604.347959,23.7669904 C604.606736,24.5775469 604.7437,25.4337238 604.7437,26.3093 L604.7437,33.784391 L603.620149,33.1356558 L603.617205,33.1339558 L587.965749,24.0968474 C586.882796,23.4717135 585.973893,22.6247932 585.283,21.6322277 L585.283,26.4178 C585.283,29.4059287 583.688885,32.1675054 581.102023,33.6603058 L565.429044,42.7098417 C565.687831,43.5204126 565.8248,44.3766062 565.8248,45.2522 L565.8248,52.727291 L564.699777,52.0777058 L549.046849,43.0397474 C547.963896,42.4146135 547.054993,41.5676932 546.3641,40.5751277 L546.3641,45.3601 C546.3641,48.3480373 544.770167,51.1096018 542.183123,52.6036058 L526.510194,61.6531126 C526.768884,62.4635442 526.9058,63.3195758 526.9058,64.195 L526.9058,71.670091 L525.780777,71.0205058 L510.128056,61.9826667 C509.045117,61.3580004 508.136155,60.5111613 507.4452,59.5184927 L507.4452,64.303 C507.4452,67.2909373 505.851267,70.0525018 503.264223,71.5465058 L487.591257,80.5960343 C487.849967,81.4063434 487.9869,82.2622082 487.9869,83.1374 L487.9869,90.613491 L486.861877,89.9639058 L471.208949,80.9259474 C468.62109,79.4321068 467.0269,76.6706229 467.0269,73.6824 L467.0269,66.207309 L483.804923,75.8948942 C484.886959,76.5197645 485.795406,77.3663471 486.4862,78.3583823 L486.4862,73.759 C486.4862,70.7714035 488.080838,68.0096687 490.66813,66.5155216 L506.39205,57.4359926 Z M584.229933,57.4359443 C583.938504,56.5803417 583.7837,55.6711871 583.7837,54.74 L583.7837,47.2649809 L600.561692,56.9514762 C601.64377,57.5763708 602.552216,58.4229639 603.243,59.4150591 L603.243,54.8151 C603.243,51.8283519 604.837769,49.0666929 607.42493,47.5726216 L623.148965,38.4930261 C622.857508,37.6374743 622.7027,36.7283816 622.7027,35.7972 L622.7027,28.3221809 L639.480692,38.0086762 C640.562718,38.6335406 641.471128,39.4800822 642.1619,40.4721155 L642.1619,35.8728 C642.1619,32.8852035 643.756538,30.1234687 646.34383,28.6293216 L662.068014,19.5506446 C661.776466,18.6949194 661.6216,17.7856423 661.6216,16.8543 L661.6216,9.37928085 L678.399592,19.0657762 C679.48167,19.6906708 680.390116,20.5372639 681.0809,21.5293591 L681.0809,16.9299 C681.0809,13.9423035 682.675538,11.1805687 685.26283,9.68642157 L702.0399,-0.000160645065 L702.0399,7.4749 C702.0399,10.4626405 700.446137,13.2233033 697.858923,14.7174058 L682.185859,23.7669904 C682.444636,24.5775469 682.5816,25.4337238 682.5816,26.3093 L682.5816,33.7843495 L681.456595,33.1348162 L665.80253,24.0967784 C664.72011,23.4716868 663.811578,22.6248891 663.1209,21.6325128 L663.1209,26.4178 C663.1209,29.4059287 661.526785,32.1675054 658.939923,33.6603058 L643.266944,42.7098417 C643.525731,43.5204126 643.6627,44.3766062 643.6627,45.2522 L643.6627,52.727291 L642.537677,52.0777058 L626.884749,43.0397474 C625.801796,42.4146135 624.892893,41.5676932 624.202,40.5751277 L624.202,45.3601 C624.202,48.3480373 622.608067,51.1096018 620.021023,52.6036058 L604.348094,61.6531126 C604.606784,62.4635442 604.7437,63.3195758 604.7437,64.195 L604.7437,71.670091 L603.618677,71.0205058 L587.965956,61.9826667 C586.882965,61.3579703 585.973967,60.5110796 585.283,59.5183491 L585.283,64.303 C585.283,67.2909373 583.689067,70.0525018 581.102023,71.5465058 L565.429141,80.5959855 C565.687862,81.406309 565.8248,82.2621906 565.8248,83.1374 L565.8248,90.613491 L564.699777,89.9639058 L549.046849,80.9259474 C546.45899,79.4321068 544.8648,76.6706229 544.8648,73.6824 L544.8648,66.207309 L561.642823,75.8948942 C562.724807,76.5197343 563.633218,77.3662654 564.324,78.3582387 L564.324,73.759 C564.324,70.7714035 565.918638,68.0096687 568.50593,66.5155216 L584.229933,57.4359443 Z M662.06781,57.4359576 C661.776401,56.5803289 661.6216,55.6711645 661.6216,54.74 L661.6216,47.2649809 L678.399592,56.9514762 C679.48167,57.5763708 680.390116,58.4229639 681.0809,59.4150591 L681.0809,54.8151 C681.0809,51.8283519 682.675669,49.0666929 685.26283,47.5726216 L700.986758,38.4930877 C700.695311,37.6374957 700.5405,36.7283765 700.5405,35.7972 L700.5405,28.3221809 L717.318492,38.0086762 C718.40057,38.6335708 719.309016,39.4801639 719.9998,40.4722591 L719.9998,35.8728 C719.9998,32.8852035 721.594438,30.1234687 724.18173,28.6293216 L739.905914,19.5506446 C739.614366,18.6949194 739.4595,17.7856423 739.4595,16.8543 L739.4595,9.37928085 L756.237492,19.0657762 C757.31957,19.6906708 758.228016,20.5372639 758.9188,21.5293591 L758.9188,16.9299 C758.9188,13.9423035 760.513438,11.1805687 763.10073,9.68642157 L779.8778,-0.000160645065 L779.8778,7.4749 C779.8778,10.4626405 778.284037,13.2233033 775.696823,14.7174058 L760.023759,23.7669904 C760.282536,24.5775469 760.4195,25.4337238 760.4195,26.3093 L760.4195,33.7843495 L759.294495,33.1348162 L743.64043,24.0967784 C742.55801,23.4716868 741.649478,22.6248891 740.9588,21.6325128 L740.9588,26.4178 C740.9588,29.4059287 739.364685,32.1675054 736.777823,33.6603058 L721.104759,42.7098904 C721.363536,43.5204469 721.5005,44.3766238 721.5005,45.2522 L721.5005,52.7272495 L720.375495,52.0777162 L704.72143,43.0396784 C703.639062,42.414617 702.730566,41.5678708 702.0399,40.5755565 L702.0399,45.3601 C702.0399,48.3480373 700.445967,51.1096018 697.858923,52.6036058 L682.185994,61.6531126 C682.444684,62.4635442 682.5816,63.3195758 682.5816,64.195 L682.5816,71.6700495 L681.456595,71.0205162 L665.802737,61.9825979 C664.720278,61.3579437 663.811652,60.5111755 663.1209,59.5186342 L663.1209,64.303 C663.1209,67.2909373 661.526967,70.0525018 658.939923,71.5465058 L643.267041,80.5959855 C643.525762,81.406309 643.6627,82.2621906 643.6627,83.1374 L643.6627,90.613491 L642.537677,89.9639058 L626.884749,80.9259474 C624.29689,79.4321068 622.7027,76.6706229 622.7027,73.6824 L622.7027,66.207309 L639.480723,75.8948942 C640.562707,76.5197343 641.471118,77.3662654 642.1619,78.3582387 L642.1619,73.759 C642.1619,70.7714035 643.756538,68.0096687 646.34383,66.5155216 L662.06781,57.4359576 Z M739.90571,57.4359576 C739.614301,56.5803289 739.4595,55.6711645 739.4595,54.74 L739.4595,47.2649809 L756.237492,56.9514762 C757.31957,57.5763708 758.228016,58.4229639 758.9188,59.4150591 L758.9188,54.8151 C758.9188,51.8283519 760.513569,49.0666929 763.10073,47.5726216 L778.824658,38.4930877 C778.533211,37.6374957 778.3784,36.7283765 778.3784,35.7972 L778.3784,28.3221809 L795.156392,38.0086762 C796.23847,38.6335708 797.146916,39.4801639 797.8377,40.4722591 L797.8377,35.8728 C797.8377,32.8852035 799.432338,30.1234687 802.01963,28.6293216 L817.743814,19.5506446 C817.452266,18.6949194 817.2974,17.7856423 817.2974,16.8543 L817.2974,9.37928085 L834.075392,19.0657762 C835.15747,19.6906708 836.065916,20.5372639 836.7567,21.5293591 L836.7567,16.9299 C836.7567,13.9423035 838.351338,11.1805687 840.93863,9.68642157 L857.7157,-0.000160645065 L857.7157,7.4749 C857.7157,10.4626405 856.121937,13.2233033 853.534723,14.7174058 L837.861659,23.7669904 C838.120436,24.5775469 838.2574,25.4337238 838.2574,26.3093 L838.2574,33.7843495 L837.132395,33.1348162 L821.47833,24.0967784 C820.39591,23.4716868 819.487378,22.6248891 818.7967,21.6325128 L818.7967,26.4178 C818.7967,29.4059287 817.202585,32.1675054 814.615723,33.6603058 L798.942659,42.7098904 C799.201436,43.5204469 799.3384,44.3766238 799.3384,45.2522 L799.3384,52.7272495 L798.213395,52.0777162 L782.55933,43.0396784 C781.476962,42.414617 780.568466,41.5678708 779.8778,40.5755565 L779.8778,45.3601 C779.8778,48.3480373 778.283867,51.1096018 775.696823,52.6036058 L760.023894,61.6531126 C760.282584,62.4635442 760.4195,63.3195758 760.4195,64.195 L760.4195,71.6700495 L759.294495,71.0205162 L743.640637,61.9825979 C742.558178,61.3579437 741.649552,60.5111755 740.9588,59.5186342 L740.9588,64.303 C740.9588,67.2909373 739.364867,70.0525018 736.777823,71.5465058 L721.104857,80.5960343 C721.363567,81.4063434 721.5005,82.2622082 721.5005,83.1374 L721.5005,90.6134495 L720.375495,89.9639162 L704.72143,80.9258784 C702.134433,79.4319018 700.5405,76.6703373 700.5405,73.6824 L700.5405,66.207309 L717.318523,75.8948942 C718.400559,76.5197645 719.309006,77.3663471 719.9998,78.3583823 L719.9998,73.759 C719.9998,70.7714035 721.594438,68.0096687 724.18173,66.5155216 L739.90571,57.4359576 Z M817.74361,57.4359576 C817.452201,56.5803289 817.2974,55.6711645 817.2974,54.74 L817.2974,47.2649809 L834.075392,56.9514762 C835.15747,57.5763708 836.065916,58.4229639 836.7567,59.4150591 L836.7567,54.8151 C836.7567,51.8283519 838.351469,49.0666929 840.93863,47.5726216 L856.662558,38.4930877 C856.371111,37.6374957 856.2163,36.7283765 856.2163,35.7972 L856.2163,28.3221809 L872.994292,38.0086762 C874.07637,38.6335708 874.984816,39.4801639 875.6756,40.4722591 L875.6756,35.8728 C875.6756,32.8852035 877.270238,30.1234687 879.85753,28.6293216 L895.581714,19.5506446 C895.290166,18.6949194 895.1353,17.7856423 895.1353,16.8543 L895.1353,9.37928085 L911.913292,19.0657762 C912.99537,19.6906708 913.903816,20.5372639 914.5946,21.5293591 L914.5946,16.9299 C914.5946,13.9423035 916.189238,11.1805687 918.77653,9.68642157 L935.5536,-0.000160645065 L935.5536,7.4749 C935.5536,10.4626405 933.959837,13.2233033 931.372623,14.7174058 L915.699559,23.7669904 C915.958336,24.5775469 916.0953,25.4337238 916.0953,26.3093 L916.0953,33.7843495 L914.970295,33.1348162 L899.31623,24.0967784 C898.23381,23.4716868 897.325278,22.6248891 896.6346,21.6325128 L896.6346,26.4178 C896.6346,29.4059287 895.040485,32.1675054 892.453623,33.6603058 L876.780559,42.7098904 C877.039336,43.5204469 877.1763,44.3766238 877.1763,45.2522 L877.1763,52.7272495 L876.051295,52.0777162 L860.39723,43.0396784 C859.314862,42.414617 858.406366,41.5678708 857.7157,40.5755565 L857.7157,45.3601 C857.7157,48.3480373 856.121767,51.1096018 853.534723,52.6036058 L837.861794,61.6531126 C838.120484,62.4635442 838.2574,63.3195758 838.2574,64.195 L838.2574,71.6700495 L837.132395,71.0205162 L821.478537,61.9825979 C820.396078,61.3579437 819.487452,60.5111755 818.7967,59.5186342 L818.7967,64.303 C818.7967,67.2909373 817.202767,70.0525018 814.615723,71.5465058 L798.942757,80.5960343 C799.201467,81.4063434 799.3384,82.2622082 799.3384,83.1374 L799.3384,90.6134495 L798.213395,89.9639162 L782.55933,80.9258784 C779.972333,79.4319018 778.3784,76.6703373 778.3784,73.6824 L778.3784,66.207309 L795.156423,75.8948942 C796.238459,76.5197645 797.146906,77.3663471 797.8377,78.3583823 L797.8377,73.759 C797.8377,70.7714035 799.432338,68.0096687 802.01963,66.5155216 L817.74361,57.4359576 Z M1421.64486,42.7098896 C1421.90364,43.5204462 1422.0406,44.3766234 1422.0406,45.2522 L1422.0406,52.727291 L1420.91558,52.0777058 L1405.26253,43.0396784 C1404.18016,42.414617 1403.27167,41.5678708 1402.581,40.5755565 L1402.581,45.3601 C1402.581,48.3480373 1400.98707,51.1096018 1398.4,52.6036162 L1382.72609,61.6531118 C1382.98478,62.4635435 1383.1217,63.3195754 1383.1217,64.195 L1383.1217,71.670091 L1381.99668,71.0205058 L1366.34384,61.9825979 C1365.26138,61.3579437 1364.35275,60.5111755 1363.662,59.5186342 L1363.662,64.303 C1363.662,67.2909373 1362.06807,70.0525018 1359.481,71.5465162 L1343.80714,80.5959847 C1344.06586,81.4063083 1344.2028,82.2621903 1344.2028,83.1374 L1344.2028,90.613491 L1343.07778,89.9639058 L1327.42473,80.9258784 C1324.83773,79.4319018 1323.2438,76.6703373 1323.2438,73.6824 L1323.2438,66.2072675 L1340.02084,75.8949046 C1341.10282,76.5197393 1342.01122,77.3662661 1342.702,78.3582356 L1342.702,73.759 C1342.702,70.771118 1344.29689,68.0094635 1346.88505,66.5154526 L1362.60891,57.4359576 C1362.3175,56.5803289 1362.1627,55.6711645 1362.1627,54.74 L1362.1627,47.2649394 L1378.93971,56.9514866 C1380.02178,57.5763758 1380.93022,58.4229645 1381.621,59.415056 L1381.621,54.8151 C1381.621,51.8283519 1383.21577,49.0666929 1385.80293,47.5726216 L1401.52786,38.4930899 C1401.23641,37.6374973 1401.0816,36.7283773 1401.0816,35.7972 L1401.0816,28.3221394 L1417.85861,38.0086866 C1418.94068,38.6335758 1419.84912,39.4801645 1420.5399,40.472256 L1420.5399,35.8728 C1420.5399,32.8852035 1422.13454,30.1234687 1424.72183,28.6293216 L1441.4999,18.9427809 L1441.4999,26.4178 C1441.4999,29.4059287 1439.90578,32.1675054 1437.3189,33.6603162 L1421.64486,42.7098896 Z M1420.5399,78.3583792 L1420.5399,73.759 C1420.5399,70.7714035 1422.13454,68.0096687 1424.72183,66.5155216 L1441.4999,56.827909 L1441.4999,64.303 C1441.4999,67.2909373 1439.90597,70.0525018 1437.3189,71.5465162 L1421.64496,80.5960335 C1421.90367,81.4063426 1422.0406,82.2622078 1422.0406,83.1374 L1422.0406,90.613491 L1420.91558,89.9639058 L1405.26253,80.9258784 C1402.67553,79.4319018 1401.0816,76.6703373 1401.0816,73.6824 L1401.0816,66.2072675 L1417.85864,75.8949046 C1418.94067,76.5197695 1419.84911,77.3663478 1420.5399,78.3583792 Z M895.58151,57.4359576 C895.290101,56.5803289 895.1353,55.6711645 895.1353,54.74 L895.1353,47.2649809 L911.913292,56.9514762 C912.99537,57.5763708 913.903816,58.4229639 914.5946,59.4150591 L914.5946,54.8151 C914.5946,51.8283519 916.189369,49.0666929 918.77653,47.5726216 L934.500458,38.4930877 C934.209011,37.6374957 934.0542,36.7283765 934.0542,35.7972 L934.0542,28.3221809 L950.832192,38.0086762 C951.91427,38.6335708 952.822716,39.4801639 953.5135,40.4722591 L953.5135,35.8728 C953.5135,32.8852035 955.108138,30.1234687 957.69543,28.6293216 L973.419614,19.5506446 C973.128066,18.6949194 972.9732,17.7856423 972.9732,16.8543 L972.9732,9.37923935 L989.75018,19.0657696 C990.832683,19.6906439 991.741431,20.537282 992.4324,21.5294825 L992.4324,16.9299 C992.4324,13.9423035 994.027038,11.1805687 996.61433,9.68642157 L1013.3914,-0.000160645065 L1013.3914,7.4749 C1013.3914,10.4626405 1011.79764,13.2233033 1009.21042,14.7174058 L993.537427,23.7669515 C993.796228,24.5774984 993.9332,25.4336848 993.9332,26.3093 L993.9332,33.7843495 L992.808195,33.1348162 L977.15413,24.0967784 C976.07171,23.4716868 975.163178,22.6248891 974.4725,21.6325128 L974.4725,26.4178 C974.4725,29.4059287 972.878385,32.1675054 970.291523,33.6603058 L954.618459,42.7098904 C954.877236,43.5204469 955.0142,44.3766238 955.0142,45.2522 L955.0142,52.7272495 L953.889195,52.0777162 L938.23513,43.0396784 C937.152762,42.414617 936.244266,41.5678708 935.5536,40.5755565 L935.5536,45.3601 C935.5536,48.3480373 933.959667,51.1096018 931.372623,52.6036058 L915.699694,61.6531126 C915.958384,62.4635442 916.0953,63.3195758 916.0953,64.195 L916.0953,71.6700495 L914.970295,71.0205162 L899.316437,61.9825979 C898.233978,61.3579437 897.325352,60.5111755 896.6346,59.5186342 L896.6346,64.303 C896.6346,67.2909373 895.040667,70.0525018 892.453623,71.5465058 L876.780657,80.5960343 C877.039367,81.4063434 877.1763,82.2622082 877.1763,83.1374 L877.1763,90.6134495 L876.051295,89.9639162 L860.39723,80.9258784 C857.810233,79.4319018 856.2163,76.6703373 856.2163,73.6824 L856.2163,66.207309 L872.994323,75.8948942 C874.076359,76.5197645 874.984806,77.3663471 875.6756,78.3583823 L875.6756,73.759 C875.6756,70.7714035 877.270238,68.0096687 879.85753,66.5155216 L895.58151,57.4359576 Z M973.41941,57.4359576 C973.128001,56.5803289 972.9732,55.6711645 972.9732,54.74 L972.9732,47.2649394 L989.75018,56.9514696 C990.832683,57.5763439 991.741431,58.422982 992.4324,59.4151825 L992.4324,54.8151 C992.4324,51.8283519 994.027169,49.0666929 996.61433,47.5726216 L1012.33843,38.4929912 C1012.047,37.6374274 1011.8922,36.7283415 1011.8922,35.7972 L1011.8922,28.3221394 L1028.66918,38.0086696 C1029.75168,38.6335439 1030.66043,39.480182 1031.3514,40.4723825 L1031.3514,35.8728 C1031.3514,32.8852035 1032.94604,30.1234687 1035.53333,28.6293216 L1051.25751,19.5506446 C1050.96597,18.6949194 1050.8111,17.7856423 1050.8111,16.8543 L1050.8111,9.37923935 L1067.58808,19.0657696 C1068.67064,19.690674 1069.57942,20.5373637 1070.2704,21.5296261 L1070.2704,16.9299 C1070.2704,13.9423035 1071.86504,11.1805687 1074.45233,9.68642157 L1091.2294,-0.000160645065 L1091.2294,7.4749 C1091.2294,10.4626405 1089.63564,13.2233033 1087.04842,14.7174058 L1071.37534,23.7670003 C1071.63413,24.5775327 1071.7711,25.4337024 1071.7711,26.3093 L1071.7711,33.7843495 L1070.6461,33.1348162 L1054.99203,24.0967784 C1053.90961,23.4716868 1053.00108,22.6248891 1052.3104,21.6325128 L1052.3104,26.4178 C1052.3104,29.4059287 1050.71628,32.1675054 1048.12942,33.6603058 L1032.45643,42.7098515 C1032.71523,43.5203984 1032.8522,44.3765848 1032.8522,45.2522 L1032.8522,52.7272495 L1031.7272,52.0777162 L1016.07313,43.0396784 C1014.99066,42.4145567 1014.08209,41.5677073 1013.3914,40.5752691 L1013.3914,45.3601 C1013.3914,48.3480373 1011.79747,51.1096018 1009.21042,52.6036058 L993.537562,61.6530737 C993.796276,62.4634957 993.9332,63.3195368 993.9332,64.195 L993.9332,71.6700495 L992.808195,71.0205162 L977.154337,61.9825979 C976.071878,61.3579437 975.163252,60.5111755 974.4725,59.5186342 L974.4725,64.303 C974.4725,67.2909373 972.878567,70.0525018 970.291523,71.5465058 L954.618557,80.5960343 C954.877267,81.4063434 955.0142,82.2622082 955.0142,83.1374 L955.0142,90.6134495 L953.889195,89.9639162 L938.23513,80.9258784 C935.648133,79.4319018 934.0542,76.6703373 934.0542,73.6824 L934.0542,66.207309 L950.832223,75.8948942 C951.914259,76.5197645 952.822706,77.3663471 953.5135,78.3583823 L953.5135,73.759 C953.5135,70.7714035 955.108138,68.0096687 957.69543,66.5155216 L973.41941,57.4359576 Z M1051.25731,57.4359576 C1050.9659,56.5803289 1050.8111,55.6711645 1050.8111,54.74 L1050.8111,47.2649394 L1067.58808,56.9514696 C1068.67064,57.576374 1069.57942,58.4230637 1070.2704,59.4153261 L1070.2704,54.8151 C1070.2704,51.8283519 1071.86517,49.0666929 1074.45233,47.5726216 L1090.17634,38.4930394 C1089.88491,37.6374615 1089.7301,36.728359 1089.7301,35.7972 L1089.7301,28.3221394 L1106.50708,38.0086696 C1107.58972,38.6336245 1108.49845,39.4804511 1109.1893,40.4729209 L1109.1893,35.8728 C1109.1893,32.8845771 1110.78349,30.1230932 1113.37135,28.6292526 L1129.09541,19.5506446 C1128.80387,18.6949194 1128.649,17.7856423 1128.649,16.8543 L1128.649,9.37923935 L1145.42598,19.0657696 C1146.50868,19.6907547 1147.41744,20.5376328 1148.1083,21.5301645 L1148.1083,16.9299 C1148.1083,13.9416771 1149.70249,11.1801932 1152.29035,9.68635263 L1169.0673,-0.000160645065 L1169.0673,7.4749 C1169.0673,10.4626405 1167.47354,13.2233033 1164.88632,14.7174058 L1149.21259,23.7673782 C1149.47116,24.5777398 1149.608,25.4337333 1149.608,26.3091786 L1149.60921,33.784471 L1148.484,33.1348162 L1132.82993,24.0967784 C1131.74751,23.4716868 1130.83898,22.6248891 1130.1483,21.6325128 L1130.1483,26.4178 C1130.1483,29.4059287 1128.55418,32.1675054 1125.96732,33.6603058 L1110.29367,42.7102294 C1110.55226,43.5206055 1110.6891,44.3766157 1110.6891,45.2520786 L1110.69031,52.727371 L1109.5651,52.0777162 L1093.91103,43.0396784 C1092.82861,42.4145868 1091.92008,41.5677891 1091.2294,40.5754128 L1091.2294,45.3601 C1091.2294,48.3480373 1089.63547,51.1096018 1087.04842,52.6036058 L1071.37548,61.6531225 C1071.63418,62.46353 1071.7711,63.3195544 1071.7711,64.195 L1071.7711,71.6700495 L1070.6461,71.0205162 L1054.99224,61.9825979 C1053.90978,61.3579437 1053.00115,60.5111755 1052.3104,59.5186342 L1052.3104,64.303 C1052.3104,67.2909373 1050.71647,70.0525018 1048.12942,71.5465058 L1032.45652,80.5959951 C1032.71526,81.4062943 1032.8522,82.2621689 1032.8522,83.1374 L1032.8522,90.6134495 L1031.7272,89.9639162 L1016.07313,80.9258784 C1013.48613,79.4319018 1011.8922,76.6703373 1011.8922,73.6824 L1011.8922,66.2072675 L1028.66924,75.8949046 C1029.75169,76.5197457 1030.66043,77.3663662 1031.3514,78.3585007 L1031.3514,73.759 C1031.3514,70.7714035 1032.94604,68.0096687 1035.53333,66.5155216 L1051.25731,57.4359576 Z M1129.09521,57.4359576 C1128.8038,56.5803289 1128.649,55.6711645 1128.649,54.74 L1128.649,47.2649394 L1145.42598,56.9514696 C1146.50868,57.5764547 1147.41744,58.4233328 1148.1083,59.4158645 L1148.1083,54.8151 C1148.1083,51.8277256 1149.70262,49.0663174 1152.29035,47.5725526 L1168.01424,38.4930394 C1167.72281,37.6374615 1167.568,36.728359 1167.568,35.7972 L1167.568,28.3221394 L1184.34498,38.0086696 C1185.42723,38.6334 1186.3357,39.4798427 1187.02646,40.4718601 L1187.0272,35.8728 C1187.0272,32.8845771 1188.62139,30.1230932 1191.20925,28.6292526 L1206.93331,19.5506446 C1206.64177,18.6949194 1206.4869,17.7856423 1206.4869,16.8543 L1206.4869,9.37923935 L1223.26391,19.0657866 C1224.34598,19.6906758 1225.25442,20.5372645 1225.9452,21.529356 L1225.9452,16.9299 C1225.9452,13.942018 1227.54009,11.1803635 1230.12825,9.68635263 L1246.9052,-0.000160645065 L1246.9052,7.4749 C1246.9052,10.4626405 1245.31144,13.2233033 1242.7242,14.7174162 L1227.05016,23.7669896 C1227.30894,24.5775462 1227.4459,25.4337234 1227.4459,26.3093 L1227.4459,33.784391 L1226.32088,33.1348058 L1210.66783,24.0967784 C1209.58541,23.4716868 1208.67688,22.6248891 1207.9862,21.6325128 L1207.9862,26.4178 C1207.9862,29.4059287 1206.39208,32.1675054 1203.8052,33.6603162 L1188.1314,42.7097479 C1188.3901,43.5202969 1188.527,44.3765127 1188.527,45.2522 L1188.527,52.727291 L1187.40198,52.0777058 L1171.74893,43.0396784 C1170.66651,42.4145868 1169.75798,41.5677891 1169.0673,40.5754128 L1169.0673,45.3601 C1169.0673,48.3480373 1167.47337,51.1096018 1164.88632,52.6036058 L1149.21272,61.6535004 C1149.47121,62.4637371 1149.608,63.3195853 1149.608,64.1948786 L1149.60921,71.670171 L1148.484,71.0205162 L1132.83014,61.9825979 C1131.74768,61.3579437 1130.83905,60.5111755 1130.1483,59.5186342 L1130.1483,64.303 C1130.1483,67.2909373 1128.55437,70.0525018 1125.96732,71.5465058 L1110.29377,80.596373 C1110.55229,81.4065014 1110.6891,82.2621998 1110.6891,83.1372786 L1110.69031,90.613571 L1109.5651,89.9639162 L1093.91103,80.9258784 C1091.32403,79.4319018 1089.7301,76.6703373 1089.7301,73.6824 L1089.7301,66.2072675 L1106.50714,75.8949046 C1107.58973,76.5198264 1108.49845,77.3666353 1109.1893,78.359039 L1109.1893,73.759 C1109.1893,70.7707771 1110.78349,68.0092932 1113.37135,66.5154526 L1129.09521,57.4359576 Z M1207.9862,59.5186342 L1207.9862,64.303 C1207.9862,67.2909373 1206.39227,70.0525018 1203.8052,71.5465162 L1188.1315,80.5958915 C1188.39013,81.4061928 1188.527,82.2620969 1188.527,83.1374 L1188.527,90.613491 L1187.40198,89.9639058 L1171.74893,80.9258784 C1169.16193,79.4319018 1167.568,76.6703373 1167.568,73.6824 L1167.568,66.2072675 L1184.34504,75.8949046 C1185.42724,76.5196019 1186.3357,77.3660269 1187.02646,78.3579784 L1187.0272,73.759 C1187.0272,70.7707771 1188.62139,68.0092932 1191.20925,66.5154526 L1206.93311,57.4359576 C1206.6417,56.5803289 1206.4869,55.6711645 1206.4869,54.74 L1206.4869,47.2649394 L1223.26391,56.9514866 C1224.34598,57.5763758 1225.25442,58.4229645 1225.9452,59.415056 L1225.9452,54.8151 C1225.9452,51.8280664 1227.54023,49.0664877 1230.12825,47.5725526 L1245.85214,38.4930394 C1245.56071,37.6374615 1245.4059,36.728359 1245.4059,35.7972 L1245.4059,28.3221394 L1262.18291,38.0086866 C1263.26493,38.6335456 1264.17333,39.4800828 1264.8641,40.4721124 L1264.8641,35.8728 C1264.8641,32.884918 1266.45899,30.1232635 1269.04715,28.6292526 L1285.8241,18.9427394 L1285.8241,26.4178 C1285.8241,29.4059287 1284.22998,32.1675054 1281.6431,33.6603162 L1265.96914,42.7098409 C1266.22793,43.5204118 1266.3649,44.3766059 1266.3649,45.2522 L1266.3649,52.727291 L1265.23988,52.0777058 L1249.58683,43.0396784 C1248.50441,42.4145868 1247.59588,41.5677891 1246.9052,40.5754128 L1246.9052,45.3601 C1246.9052,48.3480373 1245.31127,51.1096018 1242.7242,52.6036162 L1227.05029,61.6531118 C1227.30898,62.4635435 1227.4459,63.3195754 1227.4459,64.195 L1227.4459,71.670091 L1226.32088,71.0205058 L1210.66804,61.9825979 C1209.58558,61.3579437 1208.67695,60.5111755 1207.9862,59.5186342 Z M1284.77101,57.4359576 C1284.4796,56.5803289 1284.3248,55.6711645 1284.3248,54.74 L1284.3248,47.2649394 L1301.10181,56.9514866 C1302.18388,57.5763758 1303.09232,58.4229645 1303.7831,59.415056 L1303.7831,54.8151 C1303.7831,51.8280664 1305.37813,49.0664877 1307.96615,47.5725526 L1323.69004,38.4930394 C1323.39861,37.6374615 1323.2438,36.728359 1323.2438,35.7972 L1323.2438,28.3221394 L1340.02081,38.0086866 C1341.10283,38.6335456 1342.01123,39.4800828 1342.702,40.4721124 L1342.702,35.8728 C1342.702,32.884918 1344.29689,30.1232635 1346.88505,28.6292526 L1362.60911,19.5506446 C1362.31757,18.6949194 1362.1627,17.7856423 1362.1627,16.8543 L1362.1627,9.37923935 L1378.93971,19.0657866 C1380.02178,19.6906758 1380.93022,20.5372645 1381.621,21.529356 L1381.621,16.9299 C1381.621,13.9423035 1383.21564,11.1805687 1385.80293,9.68642157 L1402.581,-0.000119148736 L1402.581,7.4749 C1402.581,10.4626405 1400.98724,13.2233033 1398.4,14.7174162 L1382.72596,23.7669896 C1382.98474,24.5775462 1383.1217,25.4337234 1383.1217,26.3093 L1383.1217,33.784391 L1381.99668,33.1348058 L1366.34363,24.0967784 C1365.26121,23.4716868 1364.35268,22.6248891 1363.662,21.6325128 L1363.662,26.4178 C1363.662,29.4059287 1362.06788,32.1675054 1359.481,33.6603162 L1343.80704,42.7098409 C1344.06583,43.5204118 1344.2028,44.3766059 1344.2028,45.2522 L1344.2028,52.727291 L1343.07778,52.0777058 L1327.42473,43.0396784 C1326.34231,42.4145868 1325.43378,41.5677891 1324.7431,40.5754128 L1324.7431,45.3601 C1324.7431,48.3480373 1323.14917,51.1096018 1320.5621,52.6036162 L1304.88819,61.6531118 C1305.14688,62.4635435 1305.2838,63.3195754 1305.2838,64.195 L1305.2838,71.670091 L1304.15878,71.0205058 L1288.50594,61.9825979 C1287.42348,61.3579437 1286.51485,60.5111755 1285.8241,59.5186342 L1285.8241,64.303 C1285.8241,67.2909373 1284.23017,70.0525018 1281.6431,71.5465162 L1265.96924,80.5959847 C1266.22796,81.4063083 1266.3649,82.2621903 1266.3649,83.1374 L1266.3649,90.613491 L1265.23988,89.9639058 L1249.58683,80.9258784 C1246.99983,79.4319018 1245.4059,76.6703373 1245.4059,73.6824 L1245.4059,66.2072675 L1262.18294,75.8949046 C1263.26492,76.5197393 1264.17332,77.3662661 1264.8641,78.3582356 L1264.8641,73.759 C1264.8641,70.771118 1266.45899,68.0094635 1269.04715,66.5154526 L1284.77101,57.4359576 Z M1381.6217,26.3093 C1381.6217,23.8575981 1380.31295,21.5909823 1378.18963,20.3647784 L1363.6627,11.9773606 L1363.6627,16.8543 C1363.6627,19.3061857 1364.97061,21.5717097 1367.09372,22.7977942 L1381.6217,31.186209 L1381.6217,26.3093 Z M1383.121,16.9299 L1383.121,21.8068505 L1397.64993,13.4184216 C1399.77309,12.1923097 1401.081,9.92678573 1401.081,7.4749 L1401.081,2.59791915 L1386.55303,10.9854011 C1384.42975,12.2115823 1383.121,14.4781981 1383.121,16.9299 Z M1381.6217,64.195 C1381.6217,61.7432981 1380.31295,59.4766823 1378.18963,58.2504784 L1363.6627,49.8630606 L1363.6627,54.74 C1363.6627,57.1922215 1364.97089,59.4584695 1367.09372,60.6834942 L1381.6217,69.071909 L1381.6217,64.195 Z M1383.121,54.8151 L1383.121,59.6930505 L1397.64993,51.3046216 C1399.77287,50.0786353 1401.081,47.8122369 1401.081,45.3601 L1401.081,40.483191 L1386.55305,48.8715921 C1384.42986,50.09772 1383.121,52.3642737 1383.121,54.8151 Z M1342.7028,45.2522 C1342.7028,42.8004981 1341.39405,40.5338823 1339.27073,39.3076784 L1324.7438,30.9202606 L1324.7438,35.7972 C1324.7438,38.2490857 1326.05171,40.5146097 1328.17482,41.7406942 L1342.7028,50.129109 L1342.7028,45.2522 Z M1347.63501,29.9283134 C1345.51091,31.1544483 1344.202,33.4209056 1344.202,35.8728 L1344.202,40.7497505 L1358.73114,32.3612021 C1360.85381,31.1362695 1362.162,28.8700215 1362.162,26.4178 L1362.162,21.5408606 L1347.63501,29.9283134 Z M1342.7028,83.1374 C1342.7028,80.6865737 1341.39394,78.42002 1339.27073,77.1938784 L1324.7438,68.8055325 L1324.7438,73.6824 C1324.7438,76.1345369 1326.05193,78.4009353 1328.17482,79.6268942 L1342.7028,88.015309 L1342.7028,83.1374 Z M1347.63504,67.8144954 C1345.51091,69.0406483 1344.202,71.3071056 1344.202,73.759 L1344.202,78.6359505 L1358.73093,70.2475216 C1360.85387,69.0215353 1362.162,66.7551369 1362.162,64.303 L1362.162,59.4261325 L1347.63504,67.8144954 Z M1303.7838,64.195 C1303.7838,61.7432981 1302.47505,59.4766823 1300.35173,58.2504784 L1285.8248,49.8630606 L1285.8248,54.74 C1285.8248,57.1922215 1287.13299,59.4584695 1289.25582,60.6834942 L1303.7838,69.071909 L1303.7838,64.195 Z M1308.71614,48.8715954 C1306.59212,50.097686 1305.2831,52.3640812 1305.2831,54.8151 L1305.2831,59.6930505 L1319.81203,51.3046216 C1321.93497,50.0786353 1323.2431,47.8122369 1323.2431,45.3601 L1323.2431,40.4832325 L1308.71614,48.8715954 Z M1264.8649,45.2522 C1264.8649,42.8004981 1263.55615,40.5338823 1261.43283,39.3076784 L1246.9059,30.9202606 L1246.9059,35.7972 C1246.9059,38.2490857 1248.21381,40.5146097 1250.33692,41.7406942 L1264.8649,50.129109 L1264.8649,45.2522 Z M1269.79711,29.9283134 C1267.67301,31.1544483 1266.3641,33.4209056 1266.3641,35.8728 L1266.3641,40.7497505 L1280.89324,32.3612021 C1283.01591,31.1362695 1284.3241,28.8700215 1284.3241,26.4178 L1284.3241,21.5408606 L1269.79711,29.9283134 Z M1264.8649,83.1374 C1264.8649,80.6865737 1263.55604,78.42002 1261.43283,77.1938784 L1246.9059,68.8055325 L1246.9059,73.6824 C1246.9059,76.1345369 1248.21403,78.4009353 1250.33692,79.6268942 L1264.8649,88.015309 L1264.8649,83.1374 Z M1269.79714,67.8144954 C1267.67301,69.0406483 1266.3641,71.3071056 1266.3641,73.759 L1266.3641,78.6359505 L1280.89303,70.2475216 C1283.01597,69.0215353 1284.3241,66.7551369 1284.3241,64.303 L1284.3241,59.4261325 L1269.79714,67.8144954 Z M1225.9459,26.3093 C1225.9459,23.8575981 1224.63715,21.5909823 1222.51383,20.3647784 L1207.9869,11.9773606 L1207.9869,16.8543 C1207.9869,19.3061857 1209.29481,21.5717097 1211.41792,22.7977942 L1225.9459,31.186209 L1225.9459,26.3093 Z M1230.87821,10.9854134 C1228.75411,12.2115483 1227.4452,14.4780056 1227.4452,16.9299 L1227.4452,21.8068505 L1241.97413,13.4184216 C1244.09729,12.1923097 1245.4052,9.92678573 1245.4052,7.4749 L1245.4052,2.59796065 L1230.87821,10.9854134 Z M1225.9459,64.195 C1225.9459,61.7432981 1224.63715,59.4766823 1222.51383,58.2504784 L1207.9869,49.8630606 L1207.9869,54.74 C1207.9869,57.1922215 1209.29509,59.4584695 1211.41792,60.6834942 L1225.9459,69.071909 L1225.9459,64.195 Z M1230.87824,48.8715954 C1228.75422,50.097686 1227.4452,52.3640812 1227.4452,54.8151 L1227.4452,59.6930505 L1241.97413,51.3046216 C1244.09707,50.0786353 1245.4052,47.8122369 1245.4052,45.3601 L1245.4052,40.4832325 L1230.87824,48.8715954 Z M1187.027,45.2522 C1187.027,42.7998706 1185.71871,40.5336308 1183.59505,39.3077474 L1169.068,30.9202606 L1169.068,35.7972 C1169.068,38.2490857 1170.37591,40.5146097 1172.49902,41.7406942 L1187.027,50.129109 L1187.027,45.2522 Z M1191.95921,29.9283134 C1189.83549,31.1542308 1188.5272,33.4204706 1188.5272,35.8729214 L1188.52641,40.749629 L1203.05534,32.3612021 C1205.17801,31.1362695 1206.4862,28.8700215 1206.4862,26.4178 L1206.4862,21.5408606 L1191.95921,29.9283134 Z M1187.027,83.1374 C1187.027,80.6859462 1185.7186,78.4197686 1183.59505,77.1939474 L1169.068,68.8055325 L1169.068,73.6824 C1169.068,76.1345369 1170.37613,78.4009353 1172.49902,79.6268942 L1187.027,88.015309 L1187.027,83.1374 Z M1191.95924,67.8144954 C1189.83549,69.0404308 1188.5272,71.3066706 1188.5272,73.7591214 L1188.52641,78.635829 L1203.05513,70.2475216 C1205.17807,69.0215353 1206.4862,66.7551369 1206.4862,64.303 L1206.4862,59.4261325 L1191.95924,67.8144954 Z M1148.108,26.3093 C1148.108,23.8569706 1146.79971,21.5907308 1144.67605,20.3648474 L1130.149,11.9773606 L1130.149,16.8543 C1130.149,19.3061857 1131.45691,21.5717097 1133.58,22.7977838 L1148.10879,31.186129 L1148.108,26.3093 Z M1153.04031,10.9854134 C1150.91659,12.2113308 1149.6083,14.4775706 1149.6083,16.9299 L1149.6083,21.806809 L1164.13623,13.4184216 C1166.25939,12.1923097 1167.5673,9.92678573 1167.5673,7.4749 L1167.5673,2.59796065 L1153.04031,10.9854134 Z M1148.108,64.195 C1148.108,61.7426706 1146.79971,59.4764308 1144.67605,58.2505474 L1130.149,49.8630606 L1130.149,54.74 C1130.149,57.1922215 1131.45719,59.4584695 1133.58,60.6834838 L1148.10879,69.071829 L1148.108,64.195 Z M1153.04034,48.8715954 C1150.9167,50.0974686 1149.6083,52.3636462 1149.6083,54.8151 L1149.6083,59.693009 L1164.13623,51.3046216 C1166.25917,50.0786353 1167.5673,47.8122369 1167.5673,45.3601 L1167.5673,40.4832325 L1153.04034,48.8715954 Z M1109.1891,45.2522 C1109.1891,42.7998706 1107.88081,40.5336308 1105.75715,39.3077474 L1091.2301,30.9202606 L1091.2301,35.7972 C1091.2301,38.2490857 1092.53801,40.5146097 1094.6611,41.7406838 L1109.18989,50.129029 L1109.1891,45.2522 Z M1114.12131,29.9283134 C1111.99759,31.1542308 1110.6893,33.4204706 1110.6893,35.8728 L1110.6893,40.749709 L1125.21744,32.3612021 C1127.34011,31.1362695 1128.6483,28.8700215 1128.6483,26.4178 L1128.6483,21.5408606 L1114.12131,29.9283134 Z M1109.1891,83.1374 C1109.1891,80.6859462 1107.8807,78.4197686 1105.75715,77.1939474 L1091.2301,68.8055325 L1091.2301,73.6824 C1091.2301,76.1345369 1092.53823,78.4009353 1094.6611,79.6268838 L1109.18989,88.015229 L1109.1891,83.1374 Z M1114.12134,67.8144954 C1111.99759,69.0404308 1110.6893,71.3066706 1110.6893,73.759 L1110.6893,78.635909 L1125.21723,70.2475216 C1127.34017,69.0215353 1128.6483,66.7551369 1128.6483,64.303 L1128.6483,59.4261325 L1114.12134,67.8144954 Z M1070.2711,26.3093 C1070.2711,23.8574056 1068.96219,21.5909483 1066.83815,20.3648474 L1052.3111,11.9773606 L1052.3111,16.8543 C1052.3111,19.3061857 1053.61901,21.5717097 1055.7421,22.7977838 L1070.2711,31.1862505 L1070.2711,26.3093 Z M1071.7704,16.9299 L1071.7704,21.806809 L1086.29833,13.4184216 C1088.42149,12.1923097 1089.7294,9.92678573 1089.7294,7.4749 L1089.7294,2.59796065 L1075.20244,10.9853959 C1073.07915,12.2115823 1071.7704,14.4781981 1071.7704,16.9299 Z M1070.2711,64.195 C1070.2711,61.7431056 1068.96219,59.4766483 1066.83815,58.2505474 L1052.3111,49.8630606 L1052.3111,54.74 C1052.3111,57.1922215 1053.61929,59.4584695 1055.7421,60.6834838 L1070.2711,69.0719505 L1070.2711,64.195 Z M1071.7704,54.8151 L1071.7704,59.693009 L1086.29833,51.3046216 C1088.42127,50.0786353 1089.7294,47.8122369 1089.7294,45.3601 L1089.7294,40.4832325 L1075.20246,48.8715869 C1073.07926,50.09772 1071.7704,52.3642737 1071.7704,54.8151 Z M1031.3522,45.2522 C1031.3522,42.8003056 1030.04329,40.5338483 1027.91925,39.3077474 L1013.3922,30.9202606 L1013.3922,35.7972 C1013.3922,38.2490857 1014.70011,40.5146097 1016.8232,41.7406838 L1031.3522,50.1291505 L1031.3522,45.2522 Z M1032.8514,35.8728 L1032.8514,40.749709 L1047.37954,32.3612021 C1049.50221,31.1362695 1050.8104,28.8700215 1050.8104,26.4178 L1050.8104,21.5408606 L1036.28344,29.9282959 C1034.16015,31.1544823 1032.8514,33.4210981 1032.8514,35.8728 Z M1031.3522,83.1374 C1031.3522,80.6863812 1030.04318,78.419986 1027.91925,77.1939474 L1013.3922,68.8055325 L1013.3922,73.6824 C1013.3922,76.1345369 1014.70033,78.4009353 1016.8232,79.6268838 L1031.3522,88.0153505 L1031.3522,83.1374 Z M1032.8514,73.759 L1032.8514,78.635909 L1047.37933,70.2475216 C1049.50227,69.0215353 1050.8104,66.7551369 1050.8104,64.303 L1050.8104,59.4261325 L1036.28346,67.8144869 C1034.16015,69.0406823 1032.8514,71.3072981 1032.8514,73.759 Z M992.4332,26.3093 C992.4332,23.8574056 991.124289,21.5909483 989.000249,20.3648474 L974.4732,11.9773606 L974.4732,16.8543 C974.4732,19.3061857 975.781113,21.5717097 977.904205,22.7977838 L992.4332,31.1862505 L992.4332,26.3093 Z M993.9324,16.9299 L993.9324,21.806809 L1008.46033,13.4184216 C1010.58349,12.1923097 1011.8914,9.92678573 1011.8914,7.4749 L1011.8914,2.59796065 L997.36444,10.9853959 C995.241154,12.2115823 993.9324,14.4781981 993.9324,16.9299 Z M992.4332,64.195 C992.4332,61.7431056 991.124289,59.4766483 989.000249,58.2505474 L974.4732,49.8630606 L974.4732,54.74 C974.4732,57.1922215 975.781388,59.4584695 977.904205,60.6834838 L992.4332,69.0719505 L992.4332,64.195 Z M993.9324,54.8151 L993.9324,59.693009 L1008.46033,51.3046216 C1010.58327,50.0786353 1011.8914,47.8122369 1011.8914,45.3601 L1011.8914,40.4832325 L997.364456,48.8715869 C995.241262,50.09772 993.9324,52.3642737 993.9324,54.8151 Z M953.5142,45.2522 C953.5142,42.8004981 952.205446,40.5338823 950.08213,39.3076784 L935.5542,30.9202191 L935.5542,35.7972 C935.5542,38.2490857 936.862113,40.5146097 938.985205,41.7406838 L953.5142,50.1291505 L953.5142,45.2522 Z M955.0135,35.8728 L955.0135,40.749709 L969.541637,32.3612021 C971.664312,31.1362695 972.9725,28.8700215 972.9725,26.4178 L972.9725,21.5408606 L958.44554,29.9282959 C956.322254,31.1544823 955.0135,33.4210981 955.0135,35.8728 Z M953.5142,83.1374 C953.5142,80.6865737 952.205338,78.42002 950.08213,77.1938784 L935.5542,68.805491 L935.5542,73.6824 C935.5542,76.1345369 936.862331,78.4009353 938.985205,79.6268838 L953.5142,88.0153505 L953.5142,83.1374 Z M955.0135,73.759 L955.0135,78.635909 L969.54143,70.2475216 C971.664369,69.0215353 972.9725,66.7551369 972.9725,64.303 L972.9725,59.4261325 L958.445556,67.8144869 C956.322254,69.0406823 955.0135,71.3072981 955.0135,73.759 Z M914.5953,26.3093 C914.5953,23.8575981 913.286546,21.5909823 911.16323,20.3647784 L896.6353,11.9773191 L896.6353,16.8543 C896.6353,19.3061857 897.943213,21.5717097 900.066305,22.7977838 L914.5953,31.1862505 L914.5953,26.3093 Z M916.0946,16.9299 L916.0946,21.806809 L930.62253,13.4184216 C932.745687,12.1923097 934.0536,9.92678573 934.0536,7.4749 L934.0536,2.59796065 L919.52664,10.9853959 C917.403354,12.2115823 916.0946,14.4781981 916.0946,16.9299 Z M914.5953,64.195 C914.5953,61.7432981 913.286546,59.4766823 911.16323,58.2504784 L896.6353,49.8630191 L896.6353,54.74 C896.6353,57.1922215 897.943488,59.4584695 900.066305,60.6834838 L914.5953,69.0719505 L914.5953,64.195 Z M916.0946,54.8151 L916.0946,59.693009 L930.62253,51.3046216 C932.745469,50.0786353 934.0536,47.8122369 934.0536,45.3601 L934.0536,40.4832325 L919.526656,48.8715869 C917.403462,50.09772 916.0946,52.3642737 916.0946,54.8151 Z M875.6763,45.2522 C875.6763,42.8004981 874.367546,40.5338823 872.24423,39.3076784 L857.7163,30.9202191 L857.7163,35.7972 C857.7163,38.2490857 859.024213,40.5146097 861.147305,41.7406838 L875.6763,50.1291505 L875.6763,45.2522 Z M877.1756,35.8728 L877.1756,40.749709 L891.703737,32.3612021 C893.826412,31.1362695 895.1346,28.8700215 895.1346,26.4178 L895.1346,21.5408606 L880.60764,29.9282959 C878.484354,31.1544823 877.1756,33.4210981 877.1756,35.8728 Z M875.6763,83.1374 C875.6763,80.6865737 874.367438,78.42002 872.24423,77.1938784 L857.7163,68.805491 L857.7163,73.6824 C857.7163,76.1345369 859.024431,78.4009353 861.147305,79.6268838 L875.6763,88.0153505 L875.6763,83.1374 Z M877.1756,73.759 L877.1756,78.635909 L891.70353,70.2475216 C893.826469,69.0215353 895.1346,66.7551369 895.1346,64.303 L895.1346,59.4261325 L880.607656,67.8144869 C878.484354,69.0406823 877.1756,71.3072981 877.1756,73.759 Z M1420.5406,83.1374 C1420.5406,80.6865737 1419.23174,78.42002 1417.10853,77.1938784 L1402.5816,68.8055325 L1402.5816,73.6824 C1402.5816,76.1345369 1403.88973,78.4009353 1406.01262,79.6268942 L1420.5406,88.015309 L1420.5406,83.1374 Z M1422.0399,73.759 L1422.0399,78.6359505 L1436.56883,70.2475216 C1438.69177,69.0215353 1439.9999,66.7551369 1439.9999,64.303 L1439.9999,59.426091 L1425.47195,67.8144921 C1423.34865,69.0406823 1422.0399,71.3072981 1422.0399,73.759 Z M1420.5406,45.2522 C1420.5406,42.8004981 1419.23185,40.5338823 1417.10853,39.3076784 L1402.5816,30.9202606 L1402.5816,35.7972 C1402.5816,38.2490857 1403.88951,40.5146097 1406.01262,41.7406942 L1420.5406,50.129109 L1420.5406,45.2522 Z M1422.0399,35.8728 L1422.0399,40.7497505 L1436.56904,32.3612021 C1438.69171,31.1362695 1439.9999,28.8700215 1439.9999,26.4178 L1439.9999,21.5408191 L1425.47193,29.9283011 C1423.34865,31.1544823 1422.0399,33.4210981 1422.0399,35.8728 Z M836.7574,26.3093 C836.7574,23.8575981 835.448646,21.5909823 833.32533,20.3647784 L818.7974,11.9773191 L818.7974,16.8543 C818.7974,19.3061857 820.105313,21.5717097 822.228405,22.7977838 L836.7574,31.1862505 L836.7574,26.3093 Z M838.2567,16.9299 L838.2567,21.806809 L852.78463,13.4184216 C854.907787,12.1923097 856.2157,9.92678573 856.2157,7.4749 L856.2157,2.59796065 L841.68874,10.9853959 C839.565454,12.2115823 838.2567,14.4781981 838.2567,16.9299 Z M836.7574,64.195 C836.7574,61.7432981 835.448646,59.4766823 833.32533,58.2504784 L818.7974,49.8630191 L818.7974,54.74 C818.7974,57.1922215 820.105588,59.4584695 822.228405,60.6834838 L836.7574,69.0719505 L836.7574,64.195 Z M838.2567,54.8151 L838.2567,59.693009 L852.78463,51.3046216 C854.907569,50.0786353 856.2157,47.8122369 856.2157,45.3601 L856.2157,40.4832325 L841.688756,48.8715869 C839.565562,50.09772 838.2567,52.3642737 838.2567,54.8151 Z M797.8384,45.2522 C797.8384,42.8004981 796.529646,40.5338823 794.40633,39.3076784 L779.8784,30.9202191 L779.8784,35.7972 C779.8784,38.2490857 781.186313,40.5146097 783.309405,41.7406838 L797.8384,50.1291505 L797.8384,45.2522 Z M799.3377,35.8728 L799.3377,40.749709 L813.865837,32.3612021 C815.988512,31.1362695 817.2967,28.8700215 817.2967,26.4178 L817.2967,21.5408606 L802.76974,29.9282959 C800.646454,31.1544823 799.3377,33.4210981 799.3377,35.8728 Z M797.8384,83.1374 C797.8384,80.6865737 796.529538,78.42002 794.40633,77.1938784 L779.8784,68.805491 L779.8784,73.6824 C779.8784,76.1345369 781.186531,78.4009353 783.309405,79.6268838 L797.8384,88.0153505 L797.8384,83.1374 Z M799.3377,73.759 L799.3377,78.635909 L813.86563,70.2475216 C815.988569,69.0215353 817.2967,66.7551369 817.2967,64.303 L817.2967,59.4261325 L802.769756,67.8144869 C800.646454,69.0406823 799.3377,71.3072981 799.3377,73.759 Z M758.9195,26.3093 C758.9195,23.8575981 757.610746,21.5909823 755.48743,20.3647784 L740.9595,11.9773191 L740.9595,16.8543 C740.9595,19.3061857 742.267413,21.5717097 744.390505,22.7977838 L758.9195,31.1862505 L758.9195,26.3093 Z M760.4188,16.9299 L760.4188,21.806809 L774.94673,13.4184216 C777.069887,12.1923097 778.3778,9.92678573 778.3778,7.4749 L778.3778,2.59796065 L763.85084,10.9853959 C761.727554,12.2115823 760.4188,14.4781981 760.4188,16.9299 Z M758.9195,64.195 C758.9195,61.7432981 757.610746,59.4766823 755.48743,58.2504784 L740.9595,49.8630191 L740.9595,54.74 C740.9595,57.1922215 742.267688,59.4584695 744.390505,60.6834838 L758.9195,69.0719505 L758.9195,64.195 Z M760.4188,54.8151 L760.4188,59.693009 L774.94673,51.3046216 C777.069669,50.0786353 778.3778,47.8122369 778.3778,45.3601 L778.3778,40.4832325 L763.850856,48.8715869 C761.727662,50.09772 760.4188,52.3642737 760.4188,54.8151 Z M720.0005,45.2522 C720.0005,42.8004981 718.691746,40.5338823 716.56843,39.3076784 L702.0405,30.9202191 L702.0405,35.7972 C702.0405,38.2490857 703.348413,40.5146097 705.471505,41.7406838 L720.0005,50.1291505 L720.0005,45.2522 Z M721.4998,35.8728 L721.4998,40.749709 L736.027937,32.3612021 C738.150612,31.1362695 739.4588,28.8700215 739.4588,26.4178 L739.4588,21.5408606 L724.93184,29.9282959 C722.808554,31.1544823 721.4998,33.4210981 721.4998,35.8728 Z M720.0005,83.1374 C720.0005,80.6865737 718.691638,78.42002 716.56843,77.1938784 L702.0405,68.805491 L702.0405,73.6824 C702.0405,76.1345369 703.348631,78.4009353 705.471505,79.6268838 L720.0005,88.0153505 L720.0005,83.1374 Z M721.4998,73.759 L721.4998,78.635909 L736.02773,70.2475216 C738.150669,69.0215353 739.4588,66.7551369 739.4588,64.303 L739.4588,59.4261325 L724.931856,67.8144869 C722.808554,69.0406823 721.4998,71.3072981 721.4998,73.759 Z M681.0816,26.3093 C681.0816,23.8575981 679.772846,21.5909823 677.64953,20.3647784 L663.1216,11.9773191 L663.1216,16.8543 C663.1216,19.3061857 664.429513,21.5717097 666.552605,22.7977838 L681.0816,31.1862505 L681.0816,26.3093 Z M682.5809,16.9299 L682.5809,21.806809 L697.10883,13.4184216 C699.231987,12.1923097 700.5399,9.92678573 700.5399,7.4749 L700.5399,2.59796065 L686.01294,10.9853959 C683.889654,12.2115823 682.5809,14.4781981 682.5809,16.9299 Z M681.0816,64.195 C681.0816,61.7432981 679.772846,59.4766823 677.64953,58.2504784 L663.1216,49.8630191 L663.1216,54.74 C663.1216,57.1922215 664.429788,59.4584695 666.552605,60.6834838 L681.0816,69.0719505 L681.0816,64.195 Z M682.5809,54.8151 L682.5809,59.693009 L697.10883,51.3046216 C699.231769,50.0786353 700.5399,47.8122369 700.5399,45.3601 L700.5399,40.4832325 L686.012956,48.8715869 C683.889762,50.09772 682.5809,52.3642737 682.5809,54.8151 Z M642.1627,45.2522 C642.1627,42.8004981 640.853946,40.5338823 638.73063,39.3076784 L624.2027,30.9202191 L624.2027,35.7972 C624.2027,38.2492782 625.510771,40.5146436 627.634723,41.7406942 L642.1627,50.129109 L642.1627,45.2522 Z M643.6619,35.8728 L643.6619,40.749709 L658.190037,32.3612021 C660.312712,31.1362695 661.6209,28.8700215 661.6209,26.4178 L661.6209,21.5408606 L647.09394,29.9282959 C644.970654,31.1544823 643.6619,33.4210981 643.6619,35.8728 Z M642.1627,83.1374 C642.1627,80.6865737 640.853838,78.42002 638.73063,77.1938784 L624.2027,68.805491 L624.2027,73.6824 C624.2027,76.1347294 625.510988,78.4009692 627.634723,79.6268942 L642.1627,88.015309 L642.1627,83.1374 Z M643.6619,73.759 L643.6619,78.635909 L658.18983,70.2475216 C660.312769,69.0215353 661.6209,66.7551369 661.6209,64.303 L661.6209,59.4261325 L647.093956,67.8144869 C644.970654,69.0406823 643.6619,71.3072981 643.6619,73.759 Z M603.2437,26.3093 C603.2437,23.8575981 601.934946,21.5909823 599.81163,20.3647784 L585.2837,11.9773191 L585.2837,16.8543 C585.2837,19.3063782 586.591771,21.5717436 588.715723,22.7977942 L603.2437,31.186209 L603.2437,26.3093 Z M604.743,16.9299 L604.743,21.806809 L619.27093,13.4184216 C621.394087,12.1923097 622.702,9.92678573 622.702,7.4749 L622.702,2.59796065 L608.17504,10.9853959 C606.051754,12.2115823 604.743,14.4781981 604.743,16.9299 Z M603.2437,64.195 C603.2437,61.7432981 601.934946,59.4766823 599.81163,58.2504784 L585.2837,49.8630191 L585.2837,54.74 C585.2837,57.192414 586.592045,59.4585033 588.715723,60.6834942 L603.2437,69.071909 L603.2437,64.195 Z M604.743,54.8151 L604.743,59.693009 L619.27093,51.3046216 C621.393869,50.0786353 622.702,47.8122369 622.702,45.3601 L622.702,40.4832325 L608.175056,48.8715869 C606.051862,50.09772 604.743,52.3642737 604.743,54.8151 Z M564.3248,45.2522 C564.3248,42.8004981 563.016046,40.5338823 560.89273,39.3076784 L546.3648,30.9202191 L546.3648,35.7972 C546.3648,38.2492782 547.672871,40.5146436 549.796823,41.7406942 L564.3248,50.129109 L564.3248,45.2522 Z M565.824,35.8728 L565.824,40.749709 L580.352137,32.3612021 C582.474812,31.1362695 583.783,28.8700215 583.783,26.4178 L583.783,21.5408606 L569.25604,29.9282959 C567.132754,31.1544823 565.824,33.4210981 565.824,35.8728 Z M564.3248,83.1374 C564.3248,80.6865737 563.015938,78.42002 560.89273,77.1938784 L546.3648,68.805491 L546.3648,73.6824 C546.3648,76.1347294 547.673088,78.4009692 549.796823,79.6268942 L564.3248,88.015309 L564.3248,83.1374 Z M565.824,73.759 L565.824,78.635909 L580.35193,70.2475216 C582.474869,69.0215353 583.783,66.7551369 583.783,64.303 L583.783,59.4261325 L569.256056,67.8144869 C567.132754,69.0406823 565.824,71.3072981 565.824,73.759 Z M525.4058,26.3093 C525.4058,23.8575981 524.097046,21.5909823 521.97373,20.3647784 L507.4458,11.9773191 L507.4458,16.8543 C507.4458,19.3063782 508.753871,21.5717436 510.877823,22.7977942 L525.4058,31.186209 L525.4058,26.3093 Z M526.9051,16.9299 L526.9051,21.806809 L541.43303,13.4184216 C543.556187,12.1923097 544.8641,9.92678573 544.8641,7.4749 L544.8641,2.59796065 L530.33714,10.9853959 C528.213854,12.2115823 526.9051,14.4781981 526.9051,16.9299 Z M525.4058,64.195 C525.4058,61.7432981 524.097046,59.4766823 521.97373,58.2504784 L507.4458,49.8630191 L507.4458,54.74 C507.4458,57.192414 508.754145,59.4585033 510.877823,60.6834942 L525.4058,69.071909 L525.4058,64.195 Z M526.9051,54.8151 L526.9051,59.693009 L541.43303,51.3046216 C543.555969,50.0786353 544.8641,47.8122369 544.8641,45.3601 L544.8641,40.4832325 L530.337156,48.8715869 C528.213962,50.09772 526.9051,52.3642737 526.9051,54.8151 Z M486.4869,45.2522 C486.4869,42.8004981 485.178146,40.5338823 483.05483,39.3076784 L468.5269,30.9202191 L468.5269,35.7972 C468.5269,38.2492782 469.834971,40.5146436 471.958923,41.7406942 L486.4869,50.129109 L486.4869,45.2522 Z M487.9862,35.8728 L487.9862,40.749709 L502.514337,32.3612021 C504.637012,31.1362695 505.9452,28.8700215 505.9452,26.4178 L505.9452,21.5408606 L491.41824,29.9282959 C489.294954,31.1544823 487.9862,33.4210981 487.9862,35.8728 Z M486.4869,83.1374 C486.4869,80.6865737 485.178038,78.42002 483.05483,77.1938784 L468.5269,68.805491 L468.5269,73.6824 C468.5269,76.1347294 469.835188,78.4009692 471.958923,79.6268942 L486.4869,88.015309 L486.4869,83.1374 Z M487.9862,73.759 L487.9862,78.635909 L502.51413,70.2475216 C504.637069,69.0215353 505.9452,66.7551369 505.9452,64.303 L505.9452,59.4261325 L491.418256,67.8144869 C489.294954,69.0406823 487.9862,71.3072981 487.9862,73.759 Z M447.5679,26.3093 C447.5679,23.8575981 446.259146,21.5909823 444.13583,20.3647784 L429.6089,11.9773606 L429.6089,16.8543 C429.6089,19.3068134 430.916347,21.5719611 433.039923,22.7977942 L447.5679,31.186209 L447.5679,26.3093 Z M449.0672,16.9299 L449.0672,21.806809 L463.595249,13.4183526 C465.718753,12.1925611 467.0262,9.92741344 467.0262,7.4749 L467.0262,2.59796065 L452.49924,10.9853959 C450.375954,12.2115823 449.0672,14.4781981 449.0672,16.9299 Z M447.5679,64.195 C447.5679,61.7432981 446.259146,59.4766823 444.13583,58.2504784 L429.6089,49.8630606 L429.6089,54.74 C429.6089,57.1928492 430.916621,59.4587204 433.039923,60.6834942 L447.5679,69.071909 L447.5679,64.195 Z M449.0672,54.8151 L449.0672,59.693009 L463.595249,51.3045526 C465.718535,50.0788866 467.0262,47.8128647 467.0262,45.3601 L467.0262,40.4832325 L452.499256,48.8715869 C450.376062,50.09772 449.0672,52.3642737 449.0672,54.8151 Z M408.649,45.2522 C408.649,42.8004981 407.340246,40.5338823 405.21693,39.3076784 L390.69,30.9202606 L390.69,35.7972 C390.69,38.2497134 391.997447,40.5148611 394.121023,41.7406942 L408.649,50.129109 L408.649,45.2522 Z M410.1483,35.8728 L410.1483,40.749709 L424.676556,32.3611333 C426.799955,31.1363033 428.1083,28.870214 428.1083,26.4178 L428.1083,21.5408191 L413.580331,29.9283011 C411.457054,31.1544823 410.1483,33.4210981 410.1483,35.8728 Z M408.649,83.1374 C408.649,80.6865737 407.340138,78.42002 405.21693,77.1938784 L390.69,68.8055325 L390.69,73.6824 C390.69,76.1351647 391.997665,78.4011866 394.121023,79.6268942 L408.649,88.015309 L408.649,83.1374 Z M410.1483,73.759 L410.1483,78.635909 L424.676349,70.2474526 C426.800012,69.0215692 428.1083,66.7553294 428.1083,64.303 L428.1083,59.426091 L413.580347,67.8144921 C411.457054,69.0406823 410.1483,71.3072981 410.1483,73.759 Z M369.73,26.3093 C369.73,23.8575981 368.421246,21.5909823 366.29793,20.3647784 L351.77,11.9773191 L351.77,16.8543 C351.77,19.3063782 353.078071,21.5717436 355.202023,22.7977942 L369.73,31.186209 L369.73,26.3093 Z M371.2293,16.9299 L371.2293,21.806809 L385.757349,13.4183526 C387.881229,12.1923436 389.1893,9.92697821 389.1893,7.4749 L389.1893,2.59791915 L374.661331,10.9854011 C372.538054,12.2115823 371.2293,14.4781981 371.2293,16.9299 Z M369.73,64.195 C369.73,61.7432981 368.421246,59.4766823 366.29793,58.2504784 L351.77,49.8630191 L351.77,54.74 C351.77,57.192414 353.078345,59.4585033 355.202023,60.6834942 L369.73,69.071909 L369.73,64.195 Z M371.2293,54.8151 L371.2293,59.693009 L385.757349,51.3045526 C387.881012,50.0786692 389.1893,47.8124294 389.1893,45.3601 L389.1893,40.483191 L374.661347,48.8715921 C372.538162,50.09772 371.2293,52.3642737 371.2293,54.8151 Z M330.8111,45.2522 C330.8111,42.8004981 329.502346,40.5338823 327.37903,39.3076784 L312.8511,30.9202191 L312.8511,35.7972 C312.8511,38.2492782 314.159171,40.5146436 316.283123,41.7406942 L330.8111,50.129109 L330.8111,45.2522 Z M332.3104,35.8728 L332.3104,40.749709 L346.838656,32.3611333 C348.962055,31.1363033 350.2704,28.870214 350.2704,26.4178 L350.2704,21.5408191 L335.742431,29.9283011 C333.619154,31.1544823 332.3104,33.4210981 332.3104,35.8728 Z M330.8111,83.1374 C330.8111,80.6865737 329.502238,78.42002 327.37903,77.1938784 L312.8511,68.805491 L312.8511,73.6824 C312.8511,76.1347294 314.159388,78.4009692 316.283123,79.6268942 L330.8111,88.015309 L330.8111,83.1374 Z M332.3104,73.759 L332.3104,78.635909 L346.838449,70.2474526 C348.962112,69.0215692 350.2704,66.7553294 350.2704,64.303 L350.2704,59.426091 L335.742447,67.8144921 C333.619154,69.0406823 332.3104,71.3072981 332.3104,73.759 Z M291.8921,26.3093 C291.8921,23.8575981 290.583346,21.5909823 288.46003,20.3647784 L273.9321,11.9773191 L273.9321,16.8543 C273.9321,19.3063782 275.240171,21.5717436 277.364123,22.7977942 L291.8921,31.186209 L291.8921,26.3093 Z M293.3914,16.9299 L293.3914,21.806809 L307.919449,13.4183526 C310.043329,12.1923436 311.3514,9.92697821 311.3514,7.4749 L311.3514,2.59791915 L296.823431,10.9854011 C294.700154,12.2115823 293.3914,14.4781981 293.3914,16.9299 Z M291.8921,64.195 C291.8921,61.7432981 290.583346,59.4766823 288.46003,58.2504784 L273.9321,49.8630191 L273.9321,54.74 C273.9321,57.192414 275.240445,59.4585033 277.364123,60.6834942 L291.8921,69.071909 L291.8921,64.195 Z M293.3914,54.8151 L293.3914,59.693009 L307.919449,51.3045526 C310.043112,50.0786692 311.3514,47.8124294 311.3514,45.3601 L311.3514,40.483191 L296.823447,48.8715921 C294.700262,50.09772 293.3914,52.3642737 293.3914,54.8151 Z M252.9732,45.2522 C252.9732,42.8004981 251.664446,40.5338823 249.54113,39.3076784 L235.0132,30.9202191 L235.0132,35.7972 C235.0132,38.2492782 236.321271,40.5146436 238.445223,41.7406942 L252.9732,50.129109 L252.9732,45.2522 Z M257.90501,29.9283134 C255.781288,31.1542308 254.473,33.4204706 254.473,35.8728 L254.473,40.749709 L269.001137,32.3612021 C271.123812,31.1362695 272.432,28.8700215 272.432,26.4178 L272.432,21.5408606 L257.90501,29.9283134 Z M252.9732,83.1374 C252.9732,80.6865737 251.664338,78.42002 249.54113,77.1938784 L235.0132,68.805491 L235.0132,73.6824 C235.0132,76.1347294 236.321488,78.4009692 238.445223,79.6268942 L252.9732,88.015309 L252.9732,83.1374 Z M257.905041,67.8144954 C255.781288,69.0404308 254.473,71.3066706 254.473,73.759 L254.473,78.635909 L269.00093,70.2475216 C271.123869,69.0215353 272.432,66.7551369 272.432,64.303 L272.432,59.4261325 L257.905041,67.8144954 Z M214.0543,26.3093 C214.0543,23.8575981 212.745546,21.5909823 210.62223,20.3647784 L196.0943,11.9773191 L196.0943,16.8543 C196.0943,19.3063782 197.402371,21.5717436 199.526323,22.7977942 L214.0543,31.186209 L214.0543,26.3093 Z M218.98601,10.9854134 C216.862288,12.2113308 215.554,14.4775706 215.554,16.9299 L215.554,21.806809 L230.08193,13.4184216 C232.205087,12.1923097 233.513,9.92678573 233.513,7.4749 L233.513,2.59796065 L218.98601,10.9854134 Z M214.0543,64.195 C214.0543,61.7432981 212.745546,59.4766823 210.62223,58.2504784 L196.0943,49.8630191 L196.0943,54.74 C196.0943,57.192414 197.402645,59.4585033 199.526323,60.6834942 L214.0543,69.071909 L214.0543,64.195 Z M218.986041,48.8715954 C216.862396,50.0974686 215.554,52.3636462 215.554,54.8151 L215.554,59.693009 L230.08193,51.3046216 C232.204869,50.0786353 233.513,47.8122369 233.513,45.3601 L233.513,40.4832325 L218.986041,48.8715954 Z M175.1353,45.2522 C175.1353,42.8004981 173.826546,40.5338823 171.70323,39.3076784 L157.1753,30.9202191 L157.1753,35.7972 C157.1753,38.2492782 158.483371,40.5146436 160.607323,41.7406942 L175.1353,50.129109 L175.1353,45.2522 Z M180.06711,29.9283134 C177.943388,31.1542308 176.6351,33.4204706 176.6351,35.8728 L176.6351,40.749709 L191.163237,32.3612021 C193.285912,31.1362695 194.5941,28.8700215 194.5941,26.4178 L194.5941,21.5408606 L180.06711,29.9283134 Z M175.1353,83.1374 C175.1353,80.6865737 173.826438,78.42002 171.70323,77.1938784 L157.1753,68.805491 L157.1753,73.6824 C157.1753,76.1347294 158.483588,78.4009692 160.607323,79.6268942 L175.1353,88.015309 L175.1353,83.1374 Z M180.067141,67.8144954 C177.943388,69.0404308 176.6351,71.3066706 176.6351,73.759 L176.6351,78.635909 L191.16303,70.2475216 C193.285969,69.0215353 194.5941,66.7551369 194.5941,64.303 L194.5941,59.4261325 L180.067141,67.8144954 Z M136.2164,26.3093 C136.2164,23.8575981 134.907646,21.5909823 132.78433,20.3647784 L118.2564,11.9773191 L118.2564,16.8543 C118.2564,19.3063782 119.564471,21.5717436 121.688423,22.7977942 L136.2164,31.186209 L136.2164,26.3093 Z M141.14811,10.9854134 C139.024388,12.2113308 137.7161,14.4775706 137.7161,16.9299 L137.7161,21.806809 L152.24403,13.4184216 C154.367187,12.1923097 155.6751,9.92678573 155.6751,7.4749 L155.6751,2.59796065 L141.14811,10.9854134 Z M136.2164,64.195 C136.2164,61.7432981 134.907646,59.4766823 132.78433,58.2504784 L118.2564,49.8630191 L118.2564,54.74 C118.2564,57.192414 119.564745,59.4585033 121.688423,60.6834942 L136.2164,69.071909 L136.2164,64.195 Z M141.148141,48.8715954 C139.024496,50.0974686 137.7161,52.3636462 137.7161,54.8151 L137.7161,59.693009 L152.24403,51.3046216 C154.366969,50.0786353 155.6751,47.8122369 155.6751,45.3601 L155.6751,40.4832325 L141.148141,48.8715954 Z M97.2974,45.2522 C97.2974,42.7998706 95.9891118,40.5336308 93.8654491,39.3077474 L79.3374,30.9202191 L79.3374,35.7972 C79.3374,38.2492782 80.6454707,40.5146436 82.7694229,41.7406942 L97.2974,50.129109 L97.2974,45.2522 Z M102.22921,29.9283134 C100.105488,31.1542308 98.7972,33.4204706 98.7972,35.8728 L98.7972,40.749709 L113.325456,32.3611333 C115.448479,31.1365204 116.7562,28.8706492 116.7562,26.4178 L116.7562,21.5408606 L102.22921,29.9283134 Z M97.2974,83.1374 C97.2974,80.6859462 95.9890041,78.4197686 93.8654491,77.1939474 L79.3374,68.805491 L79.3374,73.6824 C79.3374,76.1347294 80.6456882,78.4009692 82.7694229,79.6268942 L97.2974,88.015309 L97.2974,83.1374 Z M102.229241,67.8144954 C100.105488,69.0404308 98.7972,71.3066706 98.7972,73.759 L98.7972,78.635909 L113.325249,70.2474526 C115.448535,69.0217866 116.7562,66.7557647 116.7562,64.303 L116.7562,59.4261325 L102.229241,67.8144954 Z M58.3785,26.3093 C58.3785,23.8569706 57.0702118,21.5907308 54.9465491,20.3648474 L40.4195,11.9773606 L40.4195,16.8543 C40.4195,19.3068134 41.7269474,21.5719611 43.8505229,22.7977942 L58.3785,31.186209 L58.3785,26.3093 Z M77.8373,2.59796065 L63.3103098,10.9854134 C61.1865882,12.2113308 59.8783,14.4775706 59.8783,16.9299 L59.8783,21.806809 L74.4063491,13.4183526 C76.5298526,12.1925611 77.8373,9.92741344 77.8373,7.4749 L77.8373,2.59796065 Z M58.3785,64.195 C58.3785,61.7426706 57.0702118,59.4764308 54.9465491,58.2505474 L40.4195,49.8630606 L40.4195,54.74 C40.4195,57.1928492 41.7272214,59.4587204 43.8505229,60.6834942 L58.3785,69.071909 L58.3785,64.195 Z M63.3103409,48.8715954 C61.1866959,50.0974686 59.8783,52.3636462 59.8783,54.8151 L59.8783,59.693009 L74.4063491,51.3045526 C76.5296352,50.0788866 77.8373,47.8128647 77.8373,45.3601 L77.8373,40.4832325 L63.3103409,48.8715954 Z M19.4595,45.2522 C19.4595,42.7998706 18.1512118,40.5336308 16.0275491,39.3077474 L1.5005,30.9202606 L1.5005,35.7972 C1.5005,38.2490857 2.80841341,40.5146097 4.93152291,41.7406942 L19.4595,50.129109 L19.4595,45.2522 Z M20.9593,35.8728 L20.9593,40.749709 L35.4875559,32.3611333 C37.6109551,31.1363033 38.9193,28.870214 38.9193,26.4178 L38.9193,21.5408191 L24.3913311,29.9283011 C22.2680541,31.1544823 20.9593,33.4210981 20.9593,35.8728 Z M19.4595,83.1374 C19.4595,80.6859462 18.1511041,78.4197686 16.0275491,77.1939474 L1.5005,68.8055325 L1.5005,73.6824 C1.5005,76.1345369 2.80863093,78.4009353 4.93152291,79.6268942 L19.4595,88.015309 L19.4595,83.1374 Z M20.9593,73.759 L20.9593,78.635909 L35.4873491,70.2474526 C37.6110118,69.0215692 38.9193,66.7553294 38.9193,64.303 L38.9193,59.426091 L24.3913466,67.8144921 C22.2680541,69.0406823 20.9593,71.3072981 20.9593,73.759 Z" id="Combined-Shape" fill="#E9EAEA" fill-rule="nonzero"></path>
            <path d="M1300.7268,19.7153 C1303.0818,21.0753 1304.5338,23.5893 1304.5338,26.3093 L1304.5338,32.4853 L1288.8808,23.4473 C1286.5258,22.0873 1285.0748,19.5743 1285.0748,16.8543 L1285.0748,10.6783 L1300.7268,19.7153 Z M1308.3411,10.3359 L1323.9931,1.2989 L1323.9931,7.4749 C1323.9931,10.1949 1322.5421,12.7079 1320.1871,14.0679 L1304.5331,23.1059 L1304.5331,16.9299 C1304.5331,14.2099 1305.9851,11.6959 1308.3411,10.3359 Z" id="Combined-Shape" fill="#00AB7A"></path>
        </g>
    </g>
</svg>