<?xml version="1.0" encoding="UTF-8"?>
<svg width="20px" height="20px" viewBox="0 0 20 20" version="1.1" xmlns="http://www.w3.org/2000/svg" xmlns:xlink="http://www.w3.org/1999/xlink">
    <!-- Generator: Sketch 52 (66869) - http://www.bohemiancoding.com/sketch -->
    <title>icon-search</title>
    <desc>Created with Sketch.</desc>
    <g id="icon-search" stroke="none" stroke-width="1" fill="none" fill-rule="evenodd">
        <path d="M14.984197,7.49209851 C14.984197,11.6293145 11.6293145,14.984197 7.49209851,14.984197 C3.35488248,14.984197 -1.36779477e-13,11.6293145 -1.36779477e-13,7.49209851 C-1.36779477e-13,3.35488248 3.35488248,3.46389584e-14 7.49209851,3.46389584e-14 C11.6293145,3.46389584e-14 14.984197,3.35488248 14.984197,7.49209851 Z M13.1660207,7.49209851 C13.1660207,4.35903353 10.6251635,1.81817631 7.49209851,1.81817631 C4.35903353,1.81817631 1.81817631,4.35903353 1.81817631,7.49209851 C1.81817631,10.6251635 4.35903353,13.1660207 7.49209851,13.1660207 C10.6251635,13.1660207 13.1660207,10.6251635 13.1660207,7.49209851 Z M13.8906866,15.1890667 C13.5351716,14.8345403 13.5343701,14.2589381 13.8888965,13.9034231 C14.2434228,13.5479081 14.819025,13.5471067 15.17454,13.901633 L19.732778,18.447195 C20.0882929,18.8017214 20.0890944,19.3773236 19.7345681,19.7328386 C19.3800417,20.0883536 18.8044395,20.089155 18.4489245,19.7346287 L13.8906866,15.1890667 Z" id="Combined-Shape" fill="#556978" fill-rule="nonzero"></path>
    </g>
</svg>