<svg width="50" height="50" viewBox="0 0 50 50" fill="none" xmlns="http://www.w3.org/2000/svg">
<rect width="50" height="50" rx="10" transform="matrix(-1 0 0 1 50 0)" fill="white"/>
<mask id="mask0" mask-type="alpha" maskUnits="userSpaceOnUse" x="15" y="15" width="20" height="20">
<path fill-rule="evenodd" clip-rule="evenodd" d="M15 15H35V35H15V15Z" fill="white"/>
</mask>
<g mask="url(#mask0)">
<path fill-rule="evenodd" clip-rule="evenodd" d="M26.4141 25L34.7071 16.707C35.0981 16.316 35.0981 15.684 34.7071 15.293C34.3161 14.902 33.6841 14.902 33.2931 15.293L25.0001 23.586L16.7071 15.293C16.3161 14.902 15.6841 14.902 15.2931 15.293C14.9021 15.684 14.9021 16.316 15.2931 16.707L23.5861 25L15.2931 33.293C14.9021 33.684 14.9021 34.316 15.2931 34.707C15.4881 34.902 15.7441 35 16.0001 35C16.2561 35 16.5121 34.902 16.7071 34.707L25.0001 26.414L33.2931 34.707C33.4881 34.902 33.7441 35 34.0001 35C34.2561 35 34.5121 34.902 34.7071 34.707C35.0981 34.316 35.0981 33.684 34.7071 33.293L26.4141 25Z" fill="#556978"/>
</g>
</svg>
