<svg width="22" height="22" viewBox="0 0 22 22" fill="none" xmlns="http://www.w3.org/2000/svg">
<path d="M16.1886 11.3125C16.1886 11.3125 13.5543 15.3496 13.0814 19.5975C6.50143 18.3461 1 20.9782 1 20.9782" stroke="#00AD7A" stroke-width="2" stroke-linecap="round" stroke-linejoin="round"/>
<path d="M10.6655 5.78955C10.6655 5.78955 6.62835 8.42384 2.38049 8.89669C3.67549 14.7867 1.00049 20.9788 1.00049 20.9788" stroke="#00AD7A" stroke-width="2" stroke-linecap="round" stroke-linejoin="round"/>
<path d="M1.00024 20.9787L7.2131 14.7651" stroke="#00AD7A" stroke-width="2" stroke-linecap="round" stroke-linejoin="round"/>
<path fill-rule="evenodd" clip-rule="evenodd" d="M7.2726 12.7531C7.8126 12.2138 8.68618 12.2138 9.22546 12.7531C9.76475 13.2924 9.76475 14.1667 9.22546 14.7052C8.68689 15.2438 7.8126 15.2445 7.2726 14.7052C6.73332 14.1667 6.73403 13.2917 7.2726 12.7531Z" stroke="#00AD7A" stroke-width="2" stroke-linecap="round" stroke-linejoin="round"/>
<path d="M12.3913 1C10.3777 3.37286 9.82343 7.14929 12.3263 9.65214C14.9441 12.2693 18.7634 11.47 21.0006 9.60857" stroke="#00AD7A" stroke-width="2" stroke-linecap="round" stroke-linejoin="round"/>
</svg>