<?xml version="1.0" encoding="UTF-8"?>
<svg width="30px" height="30px" viewBox="0 0 30 30" version="1.1" xmlns="http://www.w3.org/2000/svg" xmlns:xlink="http://www.w3.org/1999/xlink">
    <!-- Generator: Sketch 52 (66869) - http://www.bohemiancoding.com/sketch -->
    <title>instagram</title>
    <desc>Created with Sketch.</desc>
    <defs>
        <linearGradient x1="100%" y1="0%" x2="0%" y2="100%" id="linearGradient-1">
            <stop stop-color="#6344E0" offset="0%"></stop>
            <stop stop-color="#F13955" offset="49.8243652%"></stop>
            <stop stop-color="#EEBA4A" offset="100%"></stop>
        </linearGradient>
    </defs>
    <g id="instagram" stroke="none" stroke-width="1" fill="none" fill-rule="evenodd">
        <g id="Group-44">
            <rect id="Rectangle" stroke="#F2F2F2" fill="#FFFFFF" x="0.5" y="0.5" width="29" height="29" rx="8"></rect>
            <path d="M20.6806328,18.5346893 L20.6806328,11.4741801 C20.6806328,10.285906 19.714094,9.31936716 18.5258199,9.31936716 L11.4741801,9.31936716 C10.285906,9.31936716 9.31936716,10.285906 9.31936716,11.4741801 L9.31936716,18.5346893 C9.31936716,19.7229634 10.285906,20.6895023 11.4741801,20.6895023 L18.5258199,20.6895023 C19.714094,20.6895023 20.6806328,19.7229634 20.6806328,18.5346893 Z M18.5258199,7.5 C20.7172476,7.5 22.5,9.2827524 22.5,11.4741801 L22.5,18.5346893 C22.5,20.726117 20.7172476,22.5088694 18.5258199,22.5088694 L11.4741801,22.5088694 C9.2827524,22.5088694 7.5,20.726117 7.5,18.5346893 L7.5,11.4741801 C7.5,9.2827524 9.2827524,7.5 11.4741801,7.5 L18.5258199,7.5 Z M15.0048895,16.5840548 C15.8872826,16.5840548 16.6052504,15.8701806 16.6052504,14.9930182 C16.6052504,14.1156284 15.8872826,13.4019816 15.0048895,13.4019816 C14.1224965,13.4019816 13.4045287,14.1156284 13.4045287,14.9930182 C13.4045287,15.8701806 14.1224965,16.5840548 15.0048895,16.5840548 Z M15.0048895,11.5826144 C16.8904362,11.5826144 18.4246176,13.1124748 18.4246176,14.9930182 C18.4246176,16.8733341 16.8904362,18.4034219 15.0048895,18.4034219 C13.1193429,18.4034219 11.5851615,16.8733341 11.5851615,14.9930182 C11.5851615,13.1124748 13.1193429,11.5826144 15.0048895,11.5826144 Z M18.8643813,10.228937 C19.368346,10.228937 19.7774762,10.6362479 19.7774762,11.1386206 C19.7774762,11.6409934 19.368346,12.0483042 18.8643813,12.0483042 C18.3597344,12.0483042 17.9512864,11.6409934 17.9512864,11.1386206 C17.9512864,10.6362479 18.3597344,10.228937 18.8643813,10.228937 Z" id="Combined-Shape" fill="url(#linearGradient-1)"></path>
        </g>
    </g>
</svg>