<svg width="22" height="22" viewBox="0 0 22 22" fill="#01AD7B" xmlns="http://www.w3.org/2000/svg">
<path d="M6 1H1V6" stroke="#01AD7B" stroke-width="2" stroke-linecap="round" stroke-linejoin="round"/>
<path d="M21 6V1H16" stroke="#01AD7B" stroke-width="2" stroke-linecap="round" stroke-linejoin="round"/>
<path d="M16 20.1665H21V15.1665" stroke="#01AD7B" stroke-width="2" stroke-linecap="round" stroke-linejoin="round"/>
<path d="M1 15.1665V20.1665H6" stroke="#01AD7B" stroke-width="2" stroke-linecap="round" stroke-linejoin="round"/>
<path fill-rule="evenodd" clip-rule="evenodd" d="M8.08301 13.4998H13.9163V7.6665H8.08301V13.4998Z" stroke="#01AD7B" stroke-width="2" stroke-linecap="round" stroke-linejoin="round"/>
</svg>