<svg width="62" height="62" viewBox="0 0 62 62" fill="none" xmlns="http://www.w3.org/2000/svg">
<path fill-rule="evenodd" clip-rule="evenodd" d="M9.58759 14.6965H14.1736V10.1105L7.17359 3.11054L2.58759 7.69654L9.58759 14.6965ZM15.1736 16.6965H9.17359C8.90759 16.6965 8.65359 16.5915 8.46659 16.4035L0.46659 8.40354C0.0755898 8.01254 0.0755898 7.38054 0.46659 6.98954L6.46659 0.989539C6.85759 0.598539 7.48959 0.598539 7.88059 0.989539L15.8806 8.98954C16.0676 9.17654 16.1736 9.43154 16.1736 9.69654V15.6965C16.1736 16.2485 15.7266 16.6965 15.1736 16.6965Z" fill="#556978"/>
<path fill-rule="evenodd" clip-rule="evenodd" d="M25.9146 27.438C25.6586 27.438 25.4026 27.34 25.2076 27.145L14.4666 16.404C14.0756 16.013 14.0756 15.38 14.4666 14.99C14.8566 14.599 15.4896 14.599 15.8806 14.99L26.6216 25.731C27.0126 26.122 27.0126 26.754 26.6216 27.145C26.4266 27.34 26.1706 27.438 25.9146 27.438Z" fill="#556978"/>
<path fill-rule="evenodd" clip-rule="evenodd" d="M54.3054 58.7739C54.0494 58.7739 53.7934 58.6759 53.5984 58.4809L42.5984 47.4809C42.2074 47.0899 42.2074 46.4569 42.5984 46.0659C42.9894 45.6759 43.6214 45.6759 44.0124 46.0659L55.0124 57.0669C55.4034 57.4579 55.4034 58.0899 55.0124 58.4809C54.8174 58.6759 54.5614 58.7739 54.3054 58.7739Z" fill="#556978"/>
<path fill-rule="evenodd" clip-rule="evenodd" d="M51.7508 61.2739C51.4848 61.2739 51.2308 61.1689 51.0438 60.9809L34.0438 43.9809C33.9218 43.8579 33.8328 43.7059 33.7868 43.5399L32.2628 38.0159C32.1148 37.4829 32.4278 36.9329 32.9608 36.7859C33.4888 36.6419 34.0438 36.9499 34.1898 37.4829L35.6448 42.7529L51.7508 58.8599L58.3368 52.2739L42.2298 36.1669L36.9608 34.7129C36.4288 34.5659 36.1148 34.0159 36.2628 33.4829C36.4098 32.9509 36.9658 32.6389 37.4918 32.7859L43.0168 34.3099C43.1838 34.3559 43.3358 34.4439 43.4578 34.5659L60.4578 51.5669C60.8488 51.9579 60.8488 52.5899 60.4578 52.9809L52.4578 60.9809C52.2708 61.1689 52.0168 61.2739 51.7508 61.2739Z" fill="#556978"/>
<path fill-rule="evenodd" clip-rule="evenodd" d="M7.18828 53.257C6.96728 53.257 6.76128 53.343 6.60628 53.499C6.44928 53.655 6.36328 53.861 6.36328 54.082C6.36328 54.302 6.44928 54.509 6.60528 54.665C6.92428 54.985 7.44828 54.986 7.77128 54.665C8.09228 54.343 8.09228 53.82 7.77128 53.499C7.61528 53.343 7.40828 53.257 7.18828 53.257ZM8.47828 55.372H8.48828H8.47828ZM7.18828 56.904C6.46428 56.904 5.74228 56.63 5.19128 56.079C4.65728 55.546 4.36328 54.836 4.36328 54.082C4.36328 53.327 4.65828 52.617 5.19128 52.084C6.25428 51.02 8.11828 51.016 9.18528 52.085C10.2863 53.186 10.2863 54.977 9.18628 56.079C9.18528 56.079 9.18528 56.079 9.18528 56.08C8.63428 56.63 7.91128 56.904 7.18828 56.904Z" fill="#556978"/>
<path fill-rule="evenodd" clip-rule="evenodd" d="M8.47828 53.7925C8.22228 53.7925 7.96628 53.6945 7.77128 53.4995C7.38028 53.1085 7.38028 52.4765 7.77128 52.0855L29.6593 30.1975C30.0493 29.8065 30.6823 29.8065 31.0733 30.1975C31.4633 30.5875 31.4633 31.2205 31.0733 31.6115L9.18528 53.4995C8.99028 53.6945 8.73428 53.7925 8.47828 53.7925Z" fill="#556978"/>
<path fill-rule="evenodd" clip-rule="evenodd" d="M47.4655 1.99989C44.3765 1.99989 41.3615 3.21189 39.1155 5.45689C36.0665 8.50689 34.9235 12.9779 36.1335 17.1249C36.2365 17.4759 36.1385 17.8539 35.8805 18.1119L3.5035 50.4899C1.4975 52.4959 1.4975 55.7599 3.5035 57.7659C4.4755 58.7379 5.7685 59.2739 7.1425 59.2739C8.5165 59.2739 9.8095 58.7379 10.7805 57.7659L43.1575 25.3889C43.4165 25.1299 43.7925 25.0329 44.1455 25.1359C48.2895 26.3459 52.7635 25.2039 55.8135 22.1539C58.4435 19.5239 59.6545 15.8369 59.1625 12.2129L53.8045 17.5709C53.5515 17.8229 53.1855 17.9229 52.8385 17.8299L45.9845 15.9929C45.6395 15.9009 45.3695 15.6309 45.2775 15.2859L43.4405 8.43189C43.3475 8.08589 43.4455 7.71789 43.6985 7.46589L49.0575 2.10789C48.5275 2.03589 47.9955 1.99989 47.4655 1.99989ZM7.1425 61.2739C5.2345 61.2739 3.4395 60.5299 2.0895 59.1799C-0.6965 56.3939 -0.6965 51.8619 2.0895 49.0759L34.0585 17.1059C32.9085 12.4249 34.2775 7.46789 37.7015 4.04289C41.2685 0.476893 46.4965 -0.860106 51.3445 0.554894C51.6835 0.653894 51.9445 0.924894 52.0325 1.26689C52.1205 1.60889 52.0215 1.97289 51.7715 2.22189L45.5215 8.47189L47.0595 14.2109L52.7985 15.7489L59.0485 9.49889C59.2975 9.24889 59.6615 9.14889 60.0035 9.23689C60.3465 9.32489 60.6165 9.58689 60.7155 9.92589C62.1295 14.7739 60.7935 20.0019 57.2275 23.5679C53.8025 26.9949 48.8445 28.3619 44.1635 27.2109L12.1945 59.1799C10.8455 60.5299 9.0505 61.2739 7.1425 61.2739Z" fill="#556978"/>
</svg>
