<?xml version="1.0" encoding="utf-8"?>
<!-- Generator: Adobe Illustrator 24.0.1, SVG Export Plug-In . SVG Version: 6.00 Build 0)  -->
<svg version="1.1" id="plashki" xmlns="http://www.w3.org/2000/svg" xmlns:xlink="http://www.w3.org/1999/xlink" x="0px" y="0px"
	 viewBox="0 0 32 32" style="enable-background:new 0 0 32 32;" xml:space="preserve">
<style type="text/css">
	.st0{fill:#F2F2F2;}
	.st1{fill:#00AD7A;}
</style>
<circle class="st0" cx="16" cy="16" r="16"/>
<path class="st1" d="M25.7,24.1l-6.4-6.4c0.8-1.2,1.3-2.6,1.3-4.1c0-4-3.3-7.3-7.3-7.3S6,9.5,6,13.5s3.3,7.3,7.3,7.3
	c1.8,0,3.4-0.6,4.7-1.7l6.3,6.3c0.2,0.2,0.5,0.3,0.7,0.3s0.5-0.1,0.7-0.3C26.1,25.1,26.1,24.4,25.7,24.1z M8,13.5
	c0-2.9,2.4-5.3,5.3-5.3s5.3,2.4,5.3,5.3s-2.4,5.3-5.3,5.3S8,16.5,8,13.5z"/>
</svg>
