<svg width="161" height="352" xmlns="http://www.w3.org/2000/svg">
 <defs>
  <style>.cls-1{fill:#efefef;}.cls-2{fill:#00aa7a;}.cls-3{fill:#fff;}</style>
 </defs>
 <title>style-1-2</title>
 <g>
  <title>Layer 1</title>
  <path class="cls-1" d="m0,234.51l0,-109a40,40 0 0 1 20.25,-34.8l159.75,-90.71l0,360l-159.75,-90.71a40,40 0 0 1 -20.25,-34.78z" id="svg_1"/>
  <path class="cls-2" d="m94.57,213.51l0,-67a17.05,17.05 0 0 0 -8.57,-14.8l-16.31,-9.42a17.07,17.07 0 0 0 -17.07,0l-16.32,9.42a17.06,17.06 0 0 0 -8.53,14.78l0,67a17.06,17.06 0 0 0 8.53,14.78l16.32,9.42a17.07,17.07 0 0 0 17.07,0l16.31,-9.4a17.05,17.05 0 0 0 8.57,-14.78z" id="svg_2"/>
  <path class="cls-3" d="m85.36,142.54l-18.59,-10.73a11.2,11.2 0 0 0 -11.17,0l-13,7.51a11.2,11.2 0 0 0 -5.6,9.68l0,15a11.18,11.18 0 0 0 5.58,9.66l18.59,10.74l0,-5.4l-16.23,-9.4a6.48,6.48 0 0 1 -3.23,-5.6l0,-15a6.48,6.48 0 0 1 3.23,-5.6l13,-7.51a6.51,6.51 0 0 1 6.47,0l16.24,9.37l-16.53,9.54a5.88,5.88 0 0 0 -2.94,5.09l0,4.77l21.23,-12.26a5.89,5.89 0 0 0 2.93,-5.09l0,-1.12l0,0l0.02,-3.65z" id="svg_3"/>
  <path class="cls-3" d="m61.18,174.18l0,4.76l21.23,-12.25a5.89,5.89 0 0 0 2.93,-5.09l0,-4.76l-21.22,12.25a5.88,5.88 0 0 0 -2.94,5.09z" id="svg_4"/>
  <path class="cls-3" d="m58.25,162l-12.08,-7l0,4.77a5.89,5.89 0 0 0 2.93,5.09l12.08,7l0,-4.76a5.89,5.89 0 0 0 -2.93,-5.1z" id="svg_5"/>
  <path class="cls-3" d="m47.86,197l1.42,0a1.24,1.24 0 0 0 1.24,1c0.72,0 1.17,-0.4 1.17,-1s-0.37,-1 -1.1,-1l-0.94,0l0,-1.1l1,0a0.87,0.87 0 0 0 1,-0.92c0,-0.56 -0.41,-0.9 -1.05,-0.9a1.24,1.24 0 0 0 -1.24,1.06l-1.48,0a2.55,2.55 0 0 1 2.67,-2.27c1.42,0 2.46,0.78 2.46,2a1.75,1.75 0 0 1 -0.95,1.57a1.72,1.72 0 0 1 1,1.65c0,1.32 -1.09,2.17 -2.6,2.17a2.56,2.56 0 0 1 -2.6,-2.26z" id="svg_6"/>
  <path class="cls-3" d="m58.67,199.21l0,-3.05l-2.46,0l0,3.05l-1.43,0l0,-7.28l1.43,0l0,3l2.46,0l0,-3l1.43,0l0,7.28l-1.43,0z" id="svg_7"/>
  <path class="cls-3" d="m66.36,199.21l-0.43,-1.29l-2.59,0l-0.44,1.29l-1.48,0l2.65,-7.28l1.11,0l2.66,7.28l-1.48,0zm-1.7,-5.13l-0.92,2.65l1.81,0l-0.89,-2.65z" id="svg_8"/>
  <path class="cls-3" d="m69.18,199.21l0,-7.28l1.42,0l0,3.45l2.4,-3.45l1.7,0l-2.45,3.41l2.7,3.87l-1.79,0l-2.56,-3.8l0,3.8l-1.42,0z" id="svg_9"/>
  <path class="cls-3" d="m35.32,212l0,-7.28l1.42,0l0,3.46l2.35,-3.46l1.7,0l-2.45,3.41l2.66,3.87l-1.7,0l-2.56,-3.8l0,3.8l-1.42,0z" id="svg_10"/>
  <path class="cls-3" d="m46.81,212l-0.43,-1.29l-2.59,0l-0.44,1.29l-1.48,0l2.65,-7.28l1.11,0l2.66,7.28l-1.48,0zm-1.7,-5.13l-0.92,2.65l1.81,0l-0.89,-2.65z" id="svg_11"/>
  <path class="cls-3" d="m52.6,212l0,-2.73a10.86,10.86 0 0 1 -1.85,0.2a1.74,1.74 0 0 1 -1.86,-1.77l0,-3l1.42,0l0,2.61a0.8,0.8 0 0 0 0.91,0.87a8.33,8.33 0 0 0 1.38,-0.18l0,-3.32l1.4,0l0,7.32l-1.4,0z" id="svg_12"/>
  <path class="cls-3" d="m56,212l0,-7.28l4.8,0l0,1.28l-3.43,0l0,1.71l2.88,0l0,1.29l-2.88,0l0,1.77l3.38,0l0,1.23l-4.75,0z" id="svg_13"/>
  <path class="cls-3" d="m64.77,212.05a2.67,2.67 0 0 1 -2,-0.79c-0.74,-0.74 -0.72,-1.65 -0.72,-2.91s0,-2.17 0.72,-2.91a2.67,2.67 0 0 1 2,-0.79a2.56,2.56 0 0 1 2.68,2.3l-1.45,0a1.26,1.26 0 0 0 -2.14,-0.66c-0.27,0.31 -0.36,0.66 -0.36,2.06s0.09,1.75 0.36,2.06a1.27,1.27 0 0 0 2.14,-0.66l1.44,0a2.56,2.56 0 0 1 -2.67,2.3z" id="svg_14"/>
  <path class="cls-3" d="m71.86,206l0,6l-1.42,0l0,-6l-1.9,0l0,-1.27l5.23,0l0,1.27l-1.91,0z" id="svg_15"/>
  <path class="cls-3" d="m80.05,208.65a1.69,1.69 0 0 1 0.45,1.25a2,2 0 0 1 -2.23,2.1l-3,0l0,-7.28l2.92,0a2,2 0 0 1 2.25,2a1.66,1.66 0 0 1 -0.9,1.55a1.69,1.69 0 0 1 0.51,0.38zm-2,-1a0.82,0.82 0 0 0 0.94,-0.84c0,-0.52 -0.36,-0.83 -0.94,-0.83l-1.4,0l0,1.67l1.4,0zm0.09,3.07a0.9,0.9 0 1 0 0,-1.79l-1.49,0l0,1.79l1.49,0z" id="svg_16"/>
  <path class="cls-3" d="m86.4,212l-0.4,-1.3l-2.62,0l-0.44,1.3l-1.49,0l2.65,-7.28l1.12,0l2.66,7.28l-1.48,0zm-1.7,-5.13l-0.92,2.65l1.81,0l-0.89,-2.65z" id="svg_17"/>
  <path class="cls-3" d="m50.19,224.77l0,-1.2l2.72,-3.16a1.22,1.22 0 0 0 0.38,-0.88a0.89,0.89 0 1 0 -1.77,0l-1.33,0a2.07,2.07 0 0 1 2.22,-2.12a2,2 0 0 1 2.21,2.11a2.31,2.31 0 0 1 -0.77,1.67l-2,2.36l2.81,0l0,1.2l-4.47,0.02z" id="svg_18"/>
  <path class="cls-3" d="m58.26,224.83a2.1,2.1 0 0 1 -2.26,-2.16l0,-3.07a2.22,2.22 0 0 1 4.43,0l0,3.07a2.08,2.08 0 0 1 -2.17,2.16zm0.88,-5.21a0.88,0.88 0 0 0 -0.88,-1a0.89,0.89 0 0 0 -0.89,1l0,3a0.88,0.88 0 0 0 0.89,1a0.87,0.87 0 0 0 0.88,-1l0,-3z" id="svg_19"/>
  <path class="cls-3" d="m61.94,224.77l0,-1.2l2.72,-3.16a1.22,1.22 0 0 0 0.38,-0.88a0.89,0.89 0 1 0 -1.77,0l-1.33,0a2.06,2.06 0 0 1 2.22,-2.12a2,2 0 0 1 2.21,2.11a2.32,2.32 0 0 1 -0.78,1.67l-2,2.36l2.82,0l0,1.2l-4.47,0.02z" id="svg_20"/>
  <path class="cls-3" d="m70,224.83a2.09,2.09 0 0 1 -2.22,-2.16l0,-3.07a2.22,2.22 0 0 1 4.43,0l0,3.07a2.08,2.08 0 0 1 -2.21,2.16zm0.88,-5.21a0.89,0.89 0 1 0 -1.77,0l0,3a0.89,0.89 0 1 0 1.77,0l0,-3z" id="svg_21"/>
 </g>
</svg>