<?xml version="1.0" encoding="UTF-8"?>
<svg width="30px" height="30px" viewBox="0 0 30 30" version="1.1" xmlns="http://www.w3.org/2000/svg" xmlns:xlink="http://www.w3.org/1999/xlink">
    <!-- Generator: Sketch 52 (66869) - http://www.bohemiancoding.com/sketch -->
    <title>telegram</title>
    <desc>Created with Sketch.</desc>
    <g id="telegram" stroke="none" stroke-width="1" fill="none" fill-rule="evenodd">
        <g id="Group-46">
            <rect id="Rectangle" stroke="#F2F2F2" fill="#FFFFFF" x="0.5" y="0.5" width="29" height="29" rx="8"></rect>
            <g id="Group-6" transform="translate(7.000000, 9.000000)" fill="#34AADE">
                <path d="M13.0545471,0.0795993798 L0.653510514,4.96608032 C-0.192965637,5.31342307 -0.187815972,5.79562427 0.499664278,6.01073995 L3.01012587,6.81133867 C3.43626063,6.94751281 3.89908675,6.88567528 4.27758711,6.64227222 L11.0493963,2.27614756 C11.3976424,2.05971618 11.7162779,2.17615495 11.4542887,2.41363739 L6.07482013,7.37445494 C5.76970249,7.65667093 5.79351969,8.1526869 6.12438565,8.40201057 L10.6728271,11.8366251 C11.2650385,12.1701531 11.6924607,11.9977974 11.8398699,11.2754824 L13.9518761,1.10452363 C14.1237462,0.398654745 13.8115478,0 13.3912064,0 C13.2837071,0 13.1697708,0.0256559985 13.0545471,0.0795993798" id="Fill-4"></path>
            </g>
        </g>
    </g>
</svg>