<?xml version="1.0" encoding="UTF-8"?>
<svg width="30px" height="30px" viewBox="0 0 30 30" version="1.1" xmlns="http://www.w3.org/2000/svg" xmlns:xlink="http://www.w3.org/1999/xlink">
    <!-- Generator: Sketch 52 (66869) - http://www.bohemiancoding.com/sketch -->
    <title>vkontakte</title>
    <desc>Created with Sketch.</desc>
    <g id="vkontakte" stroke="none" stroke-width="1" fill="none" fill-rule="evenodd">
        <g id="Group-47">
            <rect id="Rectangle" stroke="#F2F2F2" fill="#FFFFFF" x="0.5" y="0.5" width="29" height="29" rx="8"></rect>
            <path d="M21.5671003,18.9960838 L19.718263,18.9960838 C19.718263,18.9960838 19.065584,19.057327 18.5447847,18.6954355 C17.8389057,18.2269649 17.1492667,17.2693443 16.2177081,17.2693443 L16.2177081,18.5427252 C16.2177081,18.5427252 16.2011881,18.9960838 15.7184688,18.9960838 L15.3057494,18.9960838 C14.6533504,18.9960838 13.0839526,18.9003748 11.3672751,17.2977124 C9.39719798,15.4577658 8.03919994,11.9581556 8.03919994,11.9581556 C8.03919994,11.9581556 7.95100007,11.7436719 8.03919994,11.6256927 C8.21167969,11.43507 8.84895877,11.4586658 8.64791906,11.4586658 L10.1677569,11.4586658 C10.770876,11.4586658 10.9450357,11.8600605 10.9450357,11.8600605 C10.9450357,11.8600605 11.2712353,12.5745642 11.7013146,13.3089521 C12.6913932,14.9999001 13.546232,15.3437634 13.546232,15.3437634 L13.546232,12.6013416 C13.546232,12.6013416 13.5767519,12.2399803 13.2819123,11.9305829 C13.0873126,11.7261739 12.7387131,11.7070851 12.6009533,11.6874661 C12.4830735,11.6779217 12.7373131,11.3711756 12.9680328,11.2303958 C13.4056722,10.9639482 14.0292313,11.0018606 14.0292313,11.0018606 L15.5485091,11.0018606 C16.0107884,11.0008001 16.2177081,11.3048951 16.2177081,11.5986502 C16.2177081,12.0976098 16.2011881,15.1149631 16.2011881,15.1149631 C16.2011881,15.1149631 16.944867,14.9116145 17.8870657,13.328306 C18.329465,12.5756247 18.6626646,11.7823798 18.6626646,11.7823798 C18.6626646,11.7823798 18.7077445,11.6423953 18.8163843,11.574259 C18.9765441,11.43507 19.3192636,11.4586658 19.3192636,11.4586658 L21.5105404,11.4586658 C21.8899399,11.4586658 21.9974597,11.5533144 21.9999797,11.802529 C22.0027797,12.1225313 21.7160601,12.6143325 20.8617814,13.7487895 C19.4486234,15.625588 19.2909836,15.4490168 20.459982,16.5352216 C21.5785803,17.5609785 21.81462,18.0700127 21.8442999,18.1278093 C22.3146993,18.8910955 21.5671003,18.9960838 21.5671003,18.9960838" id="Fill-1" fill="#3066F0"></path>
        </g>
    </g>
</svg>